ActionBarSherlock_3b86c65378a65dc8ae9017ad90a2da72e8cc2d30
ActiveAndroid_353110f25bab1a09e08b5466f6af96082b81e261
ActiveAndroid_e06e5898dc5ac2ced20491bdb7a8478c01e8499e
Activiti_0258c8ad89e63130480ff5e15d7d4a12be92ff1c
Activiti_02d326b888b3ce431468700ce32602c1b247bd91
Activiti_041d650753ff4b846fc86e4266658fc64046bc45
Activiti_0508ea55c3155def05a464f8fbe4fe6a02da54ae
Activiti_0e5fb3b2a49dc21509c63d70d2a6120830c4d51a
Activiti_14df7cdd9469716d8da651a91df15add6c172f82
Activiti_1f8fb8ad37dbd4cb4be77d827ba19e857bd451d1
Activiti_2a4442771eee1cc9e857f6999b3ead8e7cc43fd4
Activiti_3309969649110ac0a05cada31e780f9a905e6975
Activiti_39dc5314eecf01045794aee7b992eb09e3b06531
Activiti_3d8aaf3c3fcce6133c197d9ca3c1c3f72c260beb
Activiti_3e70031de5c5d25011ce8363d161e75595a84133
Activiti_45fe4ec0e1219a5e2716088c084807573378e2c4
Activiti_4a6c67505d565ea4a2cb58c558a987d53d6ad6bd
Activiti_5622a68e763431819499b28fd976dd8d240480de
Activiti_7753dab97afbc48e87d8d07961c356dbc2885401
Activiti_860a667ec27e1349f0dece406faf6092176891f9
Activiti_8ccb509272b8236c86d641f3b2a2979ab17b38f7
Activiti_8e8a116f56055c1ed55a175a7cf94d96f8e6f277
Activiti_b3006a1c95564207deee570ac402a183ed362ac9
Activiti_bac7cb30d1c48abc711135116ca8143819769512
Activiti_c63848c72d1476607e6aecf717f65532f86e8d86
Activiti_e10fb4a2fa797c81b9ab8052793527a3cb80cd73
Activiti_e48130fa6f06782d189d235d19cfeaa71fd6ac5e
Activiti_f1bea76c8c3175da3105cdfe149afc8cb74a769f
Activiti_f9dfe09527afac8deca02509f6e8bcae101ae8fb
alluxio_00434399c5ca512af7fbe5a7db652d98e4ec5a13
alluxio_018ae571b6d494f4c91e7be02defc7e16a61d48d
alluxio_050b85e8a4e1fe6e56abf30e5d8729f2ad777c1e
alluxio_071c5c329c081ed1861614a5952dd78920157c78
alluxio_09694b9eaf40fff637428b473b8fdcef8f8c37c2
alluxio_0a8713235af5d85e00396cd65fdaef3939e38d60
alluxio_0c8317f37c51998a2662158b5e1347864902524c
alluxio_0d320af1a256afa669c9534191927755e9dee6e6
alluxio_0dfce75451213afa1d8bbabe9a9520e1d97910b1
alluxio_0e04d7164b1d8ab2da90a07a76610adc051423ad
alluxio_118cb7b87bde01d6e23a97584087738e90113e8b
alluxio_12243781ff8d3d61777da26414a911675eab078e
alluxio_125b531c56733808ccd6467478a7d525a10e4c38
alluxio_1411b80535ce121e31067a429b3f3e5706010c7e
alluxio_15858b4532dc03832d3ca87589ecdbbc29b25dba
alluxio_158ca9e3d3f7785d2fa3f0aad0d12339a74be2c7
alluxio_1a934679e52520629440e4063296240eaff54b4d
alluxio_1aaffaf8df78d17e71243df6d94d687893802bb5
alluxio_1b50e64ae913b5521dcc38f5eaf7a637acf5ecd2
alluxio_1db360a1be93cadabb1ee7e44db59a45963d9bfd
alluxio_1f23a3274ff7fc089d55dcf1bfc715a6d69e175c
alluxio_2170c35fb25ca10d67a21943efe27a5ca89ccd66
alluxio_22a38f23016697fcbe078fe68ed6830a86ece9c0
alluxio_22a7ee9be3f6a027215775195111fe5f00727be0
alluxio_2357a7d2d784ae5c9aa900c1ccd41eb5049f85a8
alluxio_239fa140327c335d86ec6a4c8a6da28a236551eb
alluxio_27624e491d3d96db04fcfbdf5406664bbabb974a
alluxio_27926aec754ac2e06ec988e82d2a02c858e9a113
alluxio_28ebc42d6523369bcd7457368b7218b1e2b822da
alluxio_2e3328d3b849d29df6afd79a9d803a2ccb71793d
alluxio_2f61cce7754b09bc033105e4129acc6bac1de1e9
alluxio_2f9f1b65a52967664a98c9874633de652f06e452
alluxio_2fd6012fd5710b7f1f73bb7fbcaf8eaf0a927648
alluxio_317b247a1fff90a1cc50d51f548d116221caf99a
alluxio_31f935ef6c2c57f5d98727c823a7317a5516e86f
alluxio_338307876c9aec8a64fece0d6c9ba151b3478e24
alluxio_36963a15ef9746ed8c4d6efa3f8ade15fe921523
alluxio_369bb6fcd21941dab976dd6b972182b84ba32183
alluxio_37eb9ed2c04158691631028e8885329d67db8c83
alluxio_3917a29ac162afb3f4514af3232a60a62911596d
alluxio_3a75e0ddf165fb153cc741b1a1f4b409443f33e4
alluxio_3add9ab71fe828a0b97bd928a0f09b6b2704cd51
alluxio_3fd56ecd6cf84e528206a189136ad4f88039b8b2
alluxio_41b10e978c454e91df3b6bd472e1fe27ec72e456
alluxio_421a63316c2115d0f7d525734770d803d4956d63
alluxio_42d41d194dd5ff6bc7886f5a167aae9316b814bc
alluxio_44480175dafea420390a48d1a9e93dae0d1b4a3f
alluxio_459e772e2b72e5179d117e6f50e3837c95fa1112
alluxio_45bf0d8715c375f45b21131e5b5bd9e125ebe9c3
alluxio_4943b845e40f8943ab906f057502cfe49902d045
alluxio_4b6a818717448244fd38cb46383b94e1d674b011
alluxio_4c90dbd67d581b2c7f105c09e47aac9667bbdf35
alluxio_4d20daa8fa7cc6285df905260ca60320ad9a9bd6
alluxio_4dc0526f7d93762106543a2fbb6100e0c2f76e1c
alluxio_4e0d204ea015f3c6444f2ca3f07e49256031fef8
alluxio_4e11d655c9ef2115d1cf19e09d48e5d566b56840
alluxio_4e36e39ce513d99ff0d97244e3d697c2c30bda24
alluxio_4e5679100979b451b8ced187c19fa53f92536e6f
alluxio_4f8590ff58162f567e8a2b608de306abf6fb08fc
alluxio_4fd9167b83f567ce1d87837e780e5ee3d846b82c
alluxio_51229716623516e0e11a2fbcda67d02bfbd88310
alluxio_54a0202fd530f5e76de06cbfc3e1da97f8cdf808
alluxio_55ff44f800a06645daeeadef7263ab44964b9965
alluxio_57f8d26bc2aad0a91ab8a85be7e192ef469489f9
alluxio_5825d83fc69047c2b821beca9d27f69f49533e84
alluxio_597a1442f49ecbd544e9310bed9e7659d568a103
alluxio_5992b8ccbc9bc21d353ec3738c3f8994dfc3bbf8
alluxio_5db9d6a3a54f5f3850a9dd2bedebdce45eca082a
alluxio_6017b07a9acd0019f0b3c02593ae4b9506f61de6
alluxio_6074514548a570cb0865b686ea5754c4e10366ce
alluxio_618100095900ac610369ee51f728feceb0bb730c
alluxio_63a6043e1a8372a7e378a904077a4b30869e6057
alluxio_65d51bdf063a479fa1b6e303ec91687f0c920823
alluxio_6699389597d06621f209806f2d4b52fec2088943
alluxio_67e8cb0706ece341bb993ab1f0364d5a904a716c
alluxio_689456ff86214da22cdbc01cd7c26532af149013
alluxio_68eef1055267042127949d22b2d6574c6f6133af
alluxio_694ffd6e7bd8d9924a05fbf090701435e6ea185d
alluxio_6ca971f8904a41334a7b811033c0c146e9a3f45a
alluxio_6e570b903a799d4f73474861c9f1a1db0099310a
alluxio_6e5f6354e14fd3f8408b3fcd5896cc03335189b9
alluxio_6f22864d06ab5307c69fb626e886d2f30fb5f8c7
alluxio_6f58735d7175d63895e334f47ce66ba2fb836817
alluxio_6f8aca648b6bef9a433ee35eb605744fc1cdef1d
alluxio_7015400e2a914761901ce50cebe330ff3784c45f
alluxio_710fae2d6c9db4eec40aafbe618814ebe9e9aec5
alluxio_7120e6744397bd325f7f16c1d7770f76047820bc
alluxio_72634d9ba9652f508f73e6d4c4aeacaa4dac3f3a
alluxio_730c22e9725b558d9cb21090c7830ef4e7134b7b
alluxio_76074b214612b7efb933e5bfed9d2a9e8e1bcbd7
alluxio_7661132f7f82026310a83e1ad0eff6011fce6c90
alluxio_7960f4a69d45b1d5942e3af8e5de1e0d66b95789
alluxio_7dbefbb69705e60542031bf5c402d0f0f1bd7955
alluxio_7dd93938b32428584412b275fd056178d91ce5f6
alluxio_810b2f27e2f38963875781944ab6ff18fc336cb5
alluxio_81e8edc84eadfc16fbb31a1520fc6aa7f6a7da52
alluxio_82f6bf69cf547d15d83338f69fcebfd83fa2f461
alluxio_857fe88b6aaa104e89de7b1f7eef013912d14a10
alluxio_865a67e82d490500043c31cf2a6318c75368c762
alluxio_86f74100e3f5a30bf3ecaf4be00c0b59bda096ac
alluxio_87fbcfbbd5e2d39f470db8edbd803f4b6d5f3326
alluxio_88bf7f435fd294dc60ea6bcc2a1ee19e9aada3d4
alluxio_89a35c5fdb43d46c307272030ec248410f5d924e
alluxio_89a46661f92ca5986608b608f7dc5d4e1be8b637
alluxio_8d3395136018a23e5abeddd90fded0b6f64eb399
alluxio_8ffaf70378581b441d38c399fc26a78ffd2858c2
alluxio_916883f357e97bc6813125c6ece7a114bf54526c
alluxio_92b7f309d809fbb4e74a0677f62b8fe39ff207db
alluxio_934cee094502428588d956f6db625a5f501f341e
alluxio_9b1983ab446257a5edb5b31689a1483b63bece68
alluxio_9c4101722a079fedba88c9a35d9d838e94396e15
alluxio_9fa5e4ef4b995bbf12483ad0960a69ccab416a0b
alluxio_a02159864c613232c4c147b3284ec74b1cd266e0
alluxio_a1f4c5bf0a710ffa739ff019facbec32000724d2
alluxio_a3288cbfe2866483fc3facb3868346b3d1408c69
alluxio_a3385db7759264357d7b1a88e736b3b015e0c4bd
alluxio_a382c85225c19d45fe7052af28654cd5aca7ef11
alluxio_a42fcd4484ea4efe0c6b9500aaa3671f0039757e
alluxio_a4c1ffdb8d65b49b7ff39516f4db5698187e5169
alluxio_a7e46fdc3911520a24ba3c423c9dade104533096
alluxio_a81d3c2dc6a8ab3c4990b51c83874d6d095aeb38
alluxio_a82a81905c6c9034a910fa906ff84a487226213d
alluxio_a93cd9224782ac9847d71cdbe6818b9f6ce805dc
alluxio_aa0e9f1fc60982ba4e0f48ea1734d47096ae8471
alluxio_ab3350b4d657affb210da0770ab95f12fb576fdf
alluxio_ab72c059c55e01140f4c844e32686b1bc1daf591
alluxio_aca7e927b1e41015ae14b2d4be3db3952f4ea89e
alluxio_ad32a20f915dcb80f59aad80dcf3e7ade29b4758
alluxio_ad687b722b4d0c3461fdb7c45206257145484d8a
alluxio_b177584dbb4b511c764a52209fc49cb882702b65
alluxio_b72b1ca4847db6559ca16fc9c7cab22e7e6242f2
alluxio_b8d0f59f26c09ea477d3dcfe7706aedd2c39901e
alluxio_ba3dd8fb5ca782deaecf3458e98d63b2616c7e1c
alluxio_babab8ae2881354a042e42602913f52cec256d14
alluxio_bb4b51a7b7be69d79d44680f3931120b25907598
alluxio_bcc8c5beda6ed74ba136fd7acd461294e0ab16ff
alluxio_bd5d9cc72f246efb474394fdb16b17beab58b67d
alluxio_be297fef458787b9258f9fe068483aca6b3ce7ed
alluxio_be6bd2e6c7c953499fe708eb202d8c46d82eeed0
alluxio_bfe3835efeacc1afeb7833ef8939a5de8ae26007
alluxio_c1dafc1118b225ec818e9ca305edbdbc45e6b207
alluxio_c2014d82a6ede8518962a250d1ad7130a93b1575
alluxio_c4cdb163930b5890aa5c15f3161baa607545a129
alluxio_c799126efce58248261e9c993680798d2ed3eeb1
alluxio_c97c9dfa0c92465351ea13a2c44b080f56fdaf60
alluxio_c9b08d18d48a01a93e50f12d2641295aafe4d7a6
alluxio_cb1b4d02e48d37e5c76932c430be95c0511e34dc
alluxio_cb2fec4fd92bd8a2f21737e4d1618946ae6170bd
alluxio_cc0f33e12ad56562a35f577a16010d9ddd8a7846
alluxio_d15b72b94947277e47694b1db55c4f31f28a2642
alluxio_d502605043b1b02ccbf1ac08b00a8bc039e4c42f
alluxio_d70d6a71ee43414e3ad54bacc9ac609dcd2efca9
alluxio_d754e6db0da611b892ed3e2f038283f5c35510d9
alluxio_d837ac1e1fd6d03f22ebd458ddc5bbeb33de9889
alluxio_d8ca70f67abb10b2f1df8bfdefac2eef9bae2175
alluxio_db4bf9917dc51745f07a064cffd850156d29a9d5
alluxio_dbd9f9a45041633af588976b833f714e82f3a401
alluxio_dd6dbd5cf29795ac5bd8f76b76c562d4737917b8
alluxio_e052636b7bd2e5617ce98cacd8eb0ed191e872c4
alluxio_e09fdb31c026b85f72ea1ce930e33fa3a87d2844
alluxio_e182a0e59175ce9eeec89972c2a8ace3cf14ca58
alluxio_e37052e521c2d4eeb1c583830bdba728dc6c83cf
alluxio_e3d9f3cd50ab4d11695dd2810669852e5c9623b7
alluxio_e4b49045d2d84834ff731181b9bafccc928a6d2d
alluxio_e4fbaf277e93998f5c63825436a52d5af8a2892f
alluxio_e7ff07d6ddd0d860daee74e0b2623000ecd6778d
alluxio_ea2aedf398263a18ebda9343e97127686a2f61d9
alluxio_ead4885f8b981f207a40859af6367b8fc1db86b5
alluxio_eada96ac53b27db394d98a2d1ebd35e9e15abe84
alluxio_ebe38aec141cc8fcfd56b71bf167d6370808806a
alluxio_ee06fb98888a735d6c8cf32f3ab13aa6b0e4363b
alluxio_f03769f88f7c945594a461fa37fd26f3e91b99bf
alluxio_f207bc7996e970fb75d00fd340bcfbc2efd44bfd
alluxio_f3f2949d50d358be2569a29cd059e52d51a55d5e
alluxio_f44b19522544245e77a596c5f891393bcde4338d
alluxio_f5fe5ae0a963ee7db95d1f459280017de281af8f
alluxio_f68c090bcd6e2a480e247779a18963b19588ac81
alluxio_f8bfda8898db76004c8931071fb336c7bf42621e
alluxio_fa04fa8df997e88d5109f9fd6d8ec61167cf5750
alluxio_fa622bfe1dd2985be2a855d0255452f3cd2161a7
alluxio_fab2a90cde1f97a83c26a38af3e6f93714061f9a
alluxio_fba66d652357d9f116945382b2e3b1e65e295376
alluxio_fdc7364eed4eb249360225153c5ced9a036f97f7
alluxio_fdf92d95f06a1d1ba32b092290eb8920cbacc13e
alluxio_ff540107e6f026bd6565a73186f7904c72a72149
alluxio_ff86a53e42513228e67471b71b01b9ea190800f5
Android-PullToRefresh_4e6b29ac8fac0d15e6be7cf921e247e534898d16
Android-PullToRefresh_7795f4153694691bd7a630cc649f4650722d3245
ansj_seg_25bf46ee56f4c4ca77d2c1610f2462ed76a67f89
ansj_seg_35c519ad4da6e47b858e89f6378b5d626e41b2cf
antlr4_528e9c7b86b9ba432221ae3164e5faa09c55cef0
antlr4_68723eff20cb7cbe5e2fd93453ad07554a5797e1
antlr4_8bff26d758f6e739fc4c67aa31cc7fcd9c1319f2
antlr4_aa2223cd6a4d6ef43e680a1e0c4f074951fb9ab8
antlr4_b411ccaaa4f1fcb31658b2cc073770eee14aae58
antlr4_f1e4d85d0ac21d5ced1b2f5acc0afbafe797565f
antlr4_f233f6eaae263cea5adb0f50b79ee711ffde4c67
async-http-client_01aa462959ef98e64f8019856d5009813fcb09d8
async-http-client_06318999148f2e755fc1df25a6786a862e194e1c
async-http-client_0c587bb3062930d4ce05fbd5924efa1d3ff5aaa0
async-http-client_0f7615655c85f925cb81c377bd4205e9d5ed8bfb
async-http-client_14b91c00dca45c89cac63abe46f38955cdca7b86
async-http-client_16c040d3b33f50df256732ad69b869de1ebfdec2
async-http-client_186a9d090de21e19ff4e4f7d1eae1aeaa207c0ea
async-http-client_18c6a54b7b00d06b40a000b5356daef5e2c4c9b9
async-http-client_1f680192fefd2fde7f5e10fb1a34792a50e3246c
async-http-client_256d2e40a6796283556618b87af4b5730f903f62
async-http-client_3df88ef9460eb7a72aa9ed2b16ad3844ad5e786b
async-http-client_4a56d5ccf4363641fbe5b6e490a1eff24aa58470
async-http-client_5c2c075b4b31b12c4970f6a77ab0cc6e3702421a
async-http-client_6b8aba0b3f75950016c50a2d45baa50f3ce34235
async-http-client_713054c1359a0cb346fe966fc2ebd0999680f4f4
async-http-client_714d8cd77d04f4e214c87e41832e634c798a8b52
async-http-client_89f3f214bc93ff306602ed8945b30aaa92523137
async-http-client_9908f3ec100099ff16b02aebfd3ee0137080006d
async-http-client_ac6f29b1ff32c3e3a95964b546d70a519e3813e2
async-http-client_ad9d355760141bb98219c85d1df3ac611398f59b
async-http-client_b8ce4659cfb5ebbd26566cf5eef5c3181ef9f1d9
async-http-client_d41544432198f27825f44e650aa0190cf280e8ff
async-http-client_d6a16a5175d14f12a0dd57da08333ed4ab6bdf04
async-http-client_e2babac6dff8fa355ae8c4a5703f6133d391bc41
async-http-client_f22ad62066cfd1bf3d7415251af2c2732db34acf
atmosphere_00623c622d2b5a92b9ef05f54cbaffd6079e4ad2
atmosphere_02f92e681b223c753cca7d9d81fe2308c632a3fb
atmosphere_05047ffa33545a8ec525b02e773f89053191a39a
atmosphere_0a7300b42629c2eb700d2c4b5e39caa76f4d5305
atmosphere_0bd369540d4e442bc02cdd3dd3134b9b5930fbd5
atmosphere_0bd6dc9caaba2f2fe512f670fa3d04aef9db8eed
atmosphere_0ef7df6ec975a280713d6849142c1755731d06de
atmosphere_1731ae83aa04c2713196b23e92ec137537964033
atmosphere_1a6d1e4fffd6724334143354a1abfcf6719f0cf4
atmosphere_1b65b9c021feaab009ed5bf597d9e791c4c16727
atmosphere_2111905af362bab4ac7c786787f79764aac90c9d
atmosphere_24cf9587db23679d74680f32beade181791bf88c
atmosphere_25e70b1f6aa53836734dd548e1fcfc795dcc7fb1
atmosphere_2b5950d074b4b9e9c3d46ef08899d9629b2af104
atmosphere_343d969d3fbc831f0cbfe0e4b39fef02cd424c96
atmosphere_3db7e7672933dee660e38300f9d66330909e7c09
atmosphere_41f06ebd16a56b993554c456c056fa882847ceca
atmosphere_424c40ebf231f815d65e9b1dc1b0fa35ca50752c
atmosphere_42e0782a5258626a58177d154ca0cf3da87cdf7a
atmosphere_43835eac144a13881b45d63bed0bfcd0147fc506
atmosphere_50418466a40024d626e2fce8e87693305be3958e
atmosphere_5363d74be7745e476f75c6175628dc85fe6168e8
atmosphere_56e73fb9faee54176c275a9de7eb419c39af12cb
atmosphere_5cf710f1b72db6a8413d42668b0e878243217165
atmosphere_624b2b502fbd73e03b451abb84afe57ee185fa92
atmosphere_65ce31321f736b92ef7b5a9f8890c314e1313437
atmosphere_675a3b57dbb9e54eda05f2ba2f1415c015034291
atmosphere_676461bada01bbb99257e01774b15db8bb71a39d
atmosphere_69d0a48e66d3297fa65e746619a4101aea73f8c6
atmosphere_6bdd329602efa763ef9ad4ff4aab49ca24b8c8a9
atmosphere_6e89189bd44abc31df9015ae823492373ec3ea46
atmosphere_70ceda9740cbc5504d5ebaf2191dd706925760c8
atmosphere_72f919246228950fb80eee5c119292bed331633e
atmosphere_77e17fdb6dabe786f970f44602e297a5e0089e8c
atmosphere_7f399ac4673dcba0509481d185e68b33fbaa2c92
atmosphere_8033fd70223040e7394faa2a5cddb5f6bb3bb1c6
atmosphere_80fa3080b958523cf754f0523150acbf09e4bb78
atmosphere_8a586e948e5de2ebd7bc09203c904e579f052c06
atmosphere_8aab1afc88021a77f7f180e6cf8fd09989dcb9f6
atmosphere_90449dcb6fdb95cf9bfefae7935e6dc7c8120cb8
atmosphere_95dab505528b8746be077d165aeaa5f94863c13d
atmosphere_961badc1a831a32b5b7aaa522531a5f7b346c54e
atmosphere_9a33a5a4d77002c460238bff0c5b52f49917c2c5
atmosphere_9a846bb164140f14f649f29becc71919bbbd3ca4
atmosphere_9d03aa12ca86e57beae80727a51ccae932081dc8
atmosphere_9dcb0d53de3dfd86afbf2ea82a5ad49cb367c6a5
atmosphere_9f941db913334b4b5ed48833522200710e30bb84
atmosphere_a091e3c4af00b17456e583298e4bcba6ac9b13e9
atmosphere_ae434b1f61ef3cf1fffeaa482b5ed2fd9462e2cd
atmosphere_b23347c8d0fae222109b2c7e0252533cebb30d85
atmosphere_b715b5c1376b13452ef810bd5e8dedc9982e19ac
atmosphere_bb37a48cc21816d0580cee87b60ee2f7b788741f
atmosphere_c3cfa5cf9d6a549117a3e84d5ae941ae15d2d92c
atmosphere_c56426eaa91e72179cc742b570e08a66f52936be
atmosphere_c6b2e961a60d6a2b4f568593c9b590b1c7e40fc0
atmosphere_c89b34a9abef3283845056963273c33154686253
atmosphere_c8e4a57fc52bb9e993772f8462713541331e8a1d
atmosphere_d2dba42b6faa020b6a0b6ca99f9e5d484b61c2b0
atmosphere_d3f7c5e0464ea272e846707094b22ab1e5a3f4cd
atmosphere_dd287e0057702c15b34db99de389a1c51023c2f3
atmosphere_deabd5b0187c1825c686c7f6a593db918bd043dc
atmosphere_e764e419231da9583d35dd6b74a1b0244a35d260
atmosphere_e978b63812235df130f7598de0a9a22b85589c32
atmosphere_f0fa093ebc7f7d1b0b9beb254f6531bb77310853
atmosphere_f5a277900f4bc700a17d349aa9f30af3ddca94fe
atmosphere_f638a20e2cd0e754f173836f8705f5fb060ea633
atmosphere_f6cf5870cf8ba0f244e70df852d07bafbc9dbacd
auto_0a8470b78e9a173775de0f3ab10fba81e3da106f
auto_32a0ae3bf1a37be063cc3bdf9d599f38a1716db4
auto_c0637a44dab4b0fddd4c2e0b9794db9864ecb580
aws-sdk-java_0f74cd71a7977feb90b08abe8afdff8f7f4ae5a1
aws-sdk-java_3527dad8d20b7a56a5253434f36e3ce28a0ecac9
aws-sdk-java_4047754cadfeb091f73672117f54b8d0279020ac
aws-sdk-java_ddb09b32a93354cb9baebf8e85a815c18dfc0320
Bukkit_18c46487add2b1c32060bb9c1fc8e6e36a3d44b0
Bukkit_423974f236d8b61665f231c99cc492fb452dbf04
Bukkit_91d0f8ba5797eda7754880107f979748d9f42fc2
Bukkit_9296ebf83b9c06024194b868735e3dac899ff419
Bukkit_adbf20a2896553db1f91fdf35f71668ece201599
Bukkit_c16cf3c24bf0ab511b420c442df3581436f6eb39
Bukkit_c5eb65b4588ddf86d055954f9076e1ac56dd4f7e
Bukkit_cbd5e3bfe5f09d83892807487aea507df223d5fb
Bukkit_da29e0aa4dcb08c5c91157c0830851330af8b572
Bukkit_dc504c01fd9f55995cf59660de88fb2f9190057d
Bukkit_e5dcfd2f736de77c11d097e4f12209706f475186
camel_02973683eea2a9d61dc19c5d0f56ee4abfac9835
camel_0682e8dd41045e3375b61d3d76f6e6991e98c869
camel_09c75753e4ce3f47457d4dc0f0c6d0f488a4ccf0
camel_09f2dfd9a7d6ff6ef6ba810de47da813ba11081d
camel_0a8a7e347cae62c3fb8db2a61bc66ccf449f14e8
camel_0ed957ba961cb7b4057fe1372cfc363afead4f1e
camel_108d6f624bff5c8924cfbc30c7877eb879e88391
camel_120e7f76c8012e3821d6c14f992ba44e7ddea8b8
camel_127108d1005124b8d33651569780b08fa2b5d5b8
camel_13dc20d21b6b2e186cd7825fbf854e00810ba873
camel_1571742bfa15905659b6d42bbc33a00e05643b48
camel_1673d2e78ef993d159c18e41ee9079544507b951
camel_1697ba6074aea80fe341dd07baac4fd85165dd74
camel_16b924b95c9d99fa24d72fa649d42bc77d9528f2
camel_174061c051153641fd5869499a905e93f16ea562
camel_17657bf3a6a679b6d203c9c915c5a7f4c7752ae5
camel_190f2113cd7656f4f61262fcefd5270d8625f0a1
camel_1e861081ee629c84ea3d69b2a13dede843db39e8
camel_20259e405e3b349e7c860ae563e8e941446aaaba
camel_253a68157aba45d3e03a8273140d641f9fac9472
camel_27229d0a21279c5f7aac5e6298690f578bdf5285
camel_27fd4d15807ed46933cb83d6da0c5d7d5ca4f05a
camel_2d0eeff752d0d83b0d34b40bb67ed9329be3a708
camel_33a581dc99596797ce7a054ae65dc3007e87a208
camel_3ed03b873f069599bcf4e805d32b59b450de5da5
camel_407fa8afd0cc9c7cb69859528f3cbb2e6b0f4c8e
camel_459a67f131dad0e8b8943a1e43b50af451532e56
camel_4bd3c9c848ee4076a40694e6e5a5bc8dfb36bb85
camel_50567cfd6c73fb2ddf411d8c683f6d27aaa48cd7
camel_54b93387eecd50602f9c0e71d446aa5490d6a8fd
camel_5597c0eca131cd1c9eff8e704f67f80637606564
camel_55fb8b3008f3a0514ad28982f884d5d20fba9fe2
camel_57b24a43424e5389b337b76289bb2f1c68ea0072
camel_57b91f81aabca8d39923e6ac0e77dab323127c37
camel_595f454a5595e139c9fd887cdb27d218c22904da
camel_59e2775fe4349667d553fd5b87ae55bed08f0866
camel_5a186ff3b6591c1bdb53dc60155dc657170bd3b7
camel_5bbaa3482d2bad347cd5f3199f457050ab60a8ce
camel_621ab3943fce905f2a98032e3abe9d911837ede5
camel_67146f7870f7822a44247868e2d93a696c5ec0d7
camel_693f7c51aaef5414849aa9849ceef2ae6805fc41
camel_6a9e8a7860257545e4381d1e18df58234ee6f7c6
camel_6eec501c4fc5fd70111ed6f1c784598473072d6a
camel_74ed07d6ae20800d0c5b03eaec2e213a8b3dd00f
camel_7cce690fd27d0ef64a90911cf9cc086312fd89fc
camel_7ea3d0ec30b6b88358ca298a7e8e752a15dfbc2f
camel_80ae0c0b7908424e7f6fef38d3dd5aa3a173347a
camel_823abb25eaf32cb2445b9a01035e8ad0ed179d72
camel_837738dbcdeee114db44246c4905a14291448785
camel_8716b68d562606ede1091f5a4dc90a2c9bac47f8
camel_8948b74369bc7520bae67e20f10dcb720f3d4d34
camel_898128ba6d065082235f096139827820e5660637
camel_8a2e278a044b2441803c0c5ab849528c12f81ec8
camel_8a4f25a6dcaae2b704bce5794e007131236cb0d7
camel_8c1933ecbf207bce05820d0c440f26e3240a6d41
camel_8e1d10a46a91bc3c8e5cd100d80ed30991fbf307
camel_913e8eb4f44a0735abc98f59b712e7f45471982d
camel_91d885ef2509161726cdc7564d50b3fb4e3b6aa1
camel_922a99f714ea5407f34cd0423d3787f5c499cd63
camel_926009a3e1a45a35ffec8144fcff565d7af42fe1
camel_9497ad1ed12287f6d3b02e0bc66695f85e279954
camel_9653982736890bac7024ddb1a25e74ee0aa726b8
camel_98ae1cc238ec8c541d02203fe1b5dd668ca777f5
camel_9d46108b66684d82750a5ad01460ab5bc1c16720
camel_9ddbb5f3bda81877c096d1f56146641765efa66e
camel_9e383f401a22ab6c7085d7cb2e949ad11f020e8b
camel_a0ee918f3bd11f271c09c15a55e40bfe6edc0aaa
camel_a1f2648d7054129d0c68f4b0228e3d96fd96d64e
camel_a49af9eeea26f6c409d845278eb9b38edf344914
camel_a4c5847e42fcba0f109de1a3d312d94588249e66
camel_a5fe4f5d8fcb74a5ec054f61153f714c2983b689
camel_a7fb943916a6f128c5eb7dd3638c38bf20d14528
camel_ab0eb48e45f11661ce366001c80eb2dcdabc89ac
camel_ae6599c6ec02c7973209010991a23fde5db8217f
camel_afa6f7a8df0dcac1bc942a4d98a63707b12764e6
camel_b47d226858ebcd6e4f6368a3c7132897456dfdb0
camel_b63db70a5f19a2787735d400868a0dabd391f25b
camel_b8a9afc28a44b40c612f972230a8f10b201a8b5d
camel_bc3ca3ea8240457b4c1e919b816444294537f263
camel_bc73219f097c15f5e5e8715fc7bf351425af5823
camel_c047e252cc73596c519e538bd6de13c24350d09b
camel_c1360673a472a8ae6b8674992f95f799f866a79f
camel_c16aab7df7dd437a8a3c2178d4abdfd87dcfa505
camel_c6f898a116427906702afb349275331494ecaeef
camel_cb08061242a6ddb8fd3ee293000b8c19be82b37a
camel_cca814afdb1449e3bfc309dc892c0185c783622c
camel_cdeb155b1c6305dda738ce6eb8d4283b12a535fc
camel_cef07858664c489675c5beff7bf9a8619a2f2eee
camel_d04c83c867b0f38cb886fc567974a652b9b1e197
camel_d0fb487b934e96378fed3bc3c0682f45a07338ff
camel_d4aabe11bb48e8c8b2bcd538b1b2ef7ff391d940
camel_d55fc4de68d1c8d9a5aff883e2c5f84ad02aa0b8
camel_d60b04da8a26aca550db9d6e2fdb57ec86cda8d0
camel_d717709557fffa9bbb9d9e1f682f18f8623f16f9
camel_d7ba926794b4df826c0fc8c57e4ce5afb72bb0e2
camel_d7be28f5adf0feab8e21df89e8e66ae85422eca9
camel_dc936e03bc02c2ac536b2929b676594bebb7124f
camel_de2fe75563710a6907f6bbab9214b8047d79b99b
camel_e034907ee15d939cbcfde171bb63715e23f01a6a
camel_e56cc97612a07cedd5c67ff3c3b1e22bee525dfb
camel_e5ae9753d043d292923efc4759c2b0e2e68daa27
camel_e648d4f66916c14d88a1a4a86b74c402f7799f32
camel_e7edf94e66d63ec5fe1436dd9260b28810e9a805
camel_eae37f5aa4688fe41e867896f32ddffbe91f744f
camel_ee8bd325463cae737e0ffd836a3d5376fe695f3f
camel_f3e85df8a467608047ac463ed30d6843d9effc27
camel_f3fecfc71f54d910ac4b32a9c2bcc53bc0530f55
camel_f647b984441aadb2c378f3152fc6b0f62d1e92bf
camel_f7cac84b60c17b81e693fbe85a9cfb6018b2d920
camel_fdf8ea030eea97196316bf3408dbee06e4a95ea6
canal_03a95221911cc94bcb7c8df8ad98ca9b642addb8
canal_041225c3f286c8fb8bf59cb5fa2f686ea7903ade
canal_2278340c7b8453e2521bad6bed0b4a82017d47b0
canal_575dd59c7893e6a41f8b0da6b9f5a107580d40d0
canal_69df50fe170f023ebc565186c72a2673fdab2b64
canal_7eb6fb3e8a263dee9fc93ce004900e665485914f
canal_9ae6c0c8639b9df9417506e9184f827914c7453a
canal_b71e2991610febd5d19d9e3a303d3c9fe667ce32
canal_bef6a66eaf107f6451a352b7d9cb71919e442fda
canal_f1a1cb26cc382a11d148ae68a0c0f1e26f262085
checkstyle_0bf5f793206ca5e219e19b4379f6d46221fe2aea
checkstyle_162348c8caa65f410cbff0fdf4a7a65011d77113
checkstyle_1e7ae5866daead0d81be2bfcf7febbd1ca0fcbd8
checkstyle_20e6e9afcad4cf6ba8ac455becbcddd7f9e36284
checkstyle_2a96f3f8909df111882e075196adc2f1545e23f6
checkstyle_3d3f3d5f9c1243bdc111bd463e2f3afc23384d13
checkstyle_3d7dcc51c4ac202182ecbdaf73c6e6f97b683293
checkstyle_3d9f726c2d5fcc152fbfbcdeaade390b36b5fba0
checkstyle_3db243d947bce80db9f759798116a664580c770f
checkstyle_4a97626c4fabfcbaa14648c6b5f8bc1bedf73f46
checkstyle_5a46bdbeeadb368fba5c78c6c3bfc772a579a86a
checkstyle_6e1b3fadeddf5219a74285b898fde47e34a81e4d
checkstyle_7e6f2135a96d241e024d6a127b2293cf869edb31
checkstyle_88edaa84fdcd29fe5cce6c3497cb326244b14197
checkstyle_987da3a4c5fac3476a4461892c919c0f6d9248bd
checkstyle_b3e0211ef4d4019d65b97970ab1c078c242348d2
checkstyle_ba16b1537f68ce77dd09a25b85a11c1e7ecffe75
checkstyle_c5e7dea98700e040d6dd872015b8dac472b9aa2d
checkstyle_c8761822c4cdea9e60b08777fd01f1958201f06f
checkstyle_e90dbc731d23b31eaf01461041bdc67d9b999224
checkstyle_eabb79303a0bf4fd0aa9b2eaa98e8845a3685f6f
checkstyle_ee1b845b7936df396543bc11dced4676d5af86b6
checkstyle_f94694c2231e5c1025b76bcfe0337304a76ec94a
checkstyle_fb2ec00cc72fa6edc0894e337b8176adcc2eb974
clojure_1c3bf71000b2a531995557110e04cd5ff8c22535
clojure_3aee36c87f6592f563ef814adb1431bdc4e740cf
clojure_4ed7e42738f7a77fe18b7fc1ae5c6ee7f419310c
clojure_58fee964ca7b3d3ffed9dfbb37bc4f9179973edb
clojure_65b5f73a9be30669116fcddb6ced9e60680532e5
clojure_7700d66d5a657d2102ddeb560d52bca758669ed9
clojure_96589c0405b88880970f62f9e1380e77805642c7
clojure_bd5301d52f43a687dd9b960db53a733a8f0d5a23
clojure_c1ca66b7a171bcd2157e679799f37ba7a37bff36
clojure_c4a5cd208aef54ae5b292fa41c4880017315e553
clojure_d910b3d997e1c40528aab2212fe356a8598bb738
clojure_dda99609dbe5b3ef9a831b570c99ee79530f4d0a
clojure_eba20b3dcc401fb4c873afc5948cc92fbcb00097
closure-compiler_0165ab823ad9674b3b38200a77f50d3677ce541c
closure-compiler_0cf74c1eed6009d29c02dbd6c0a831af448e8915
closure-compiler_0f272c58a561f35317608d843facd29b4b1f9247
closure-compiler_11b2dc6cb756eab64037bb27188e0c1eac3b01e0
closure-compiler_1483181d1cddaba1aaa283fae5f1d5b7c347802f
closure-compiler_1e3fd8d43b240cca0891dcd1911995e4cc05853d
closure-compiler_1fe531a4525bfc4a4138a0074d632eb79d1ce044
closure-compiler_23423085f9af64ba33a2031298f46474317cb425
closure-compiler_265bcdd81ec8e8fd56f875d4bcf15c1cc4ff9dc9
closure-compiler_28839656db6bc11561d17a66761d8592e8a67de1
closure-compiler_4031a54f71a1df311b0b9ab24640297e0d526bfe
closure-compiler_465403dcb54522a763acdab0ff7fee7c03b0f341
closure-compiler_4660d2c4aaae508c654b1d05b8638d4fc5e5a527
closure-compiler_519b46577ef4b64ef4b4bad46f96281d6b9f68bf
closure-compiler_541a33ea309a08c82988d48604492f56746c0089
closure-compiler_5fbfe634468be3211ba0f0144ff8ee18dbc94025
closure-compiler_645987a8921c14c9a333fb04f0b67c1cefcd63e3
closure-compiler_6e44c2ab7f925356eebe85a007e5d89d2880fef2
closure-compiler_8699e073d692da7f81f0fe7f973784f2e3e54995
closure-compiler_86b2d8d04c060d0c6fc65703b2c9f3f99e32a53b
closure-compiler_99c4661a447ef55201251c67d21acfdcb100b73e
closure-compiler_9fc02469522f77d08bd814f383c3dbf59977b39b
closure-compiler_c86e1482cf46434c6504e93b41c4f94f1c030374
closure-compiler_cd0962880fd3868deffc2818d8655cfc0edacf6a
closure-compiler_daef17d4bb38e7a7961121288f1ef4ae3c56ec71
closure-compiler_eb008892d5d730c4c3c14991ae19650d010f0547
closure-compiler_f130eecfda624409190f9cb43747d8c69f37180b
closure-compiler_fdd6f8b54dccb215c8fe55e39b24fbbb5dd62a14
CoreNLP_063331b78a8974fa056781a86df1e211c4a6884e
CoreNLP_0c2a092d9e9116507ccd2dd8e66fd436e0fb025f
CoreNLP_0d252a7fbd2a1b85faa7feb487c39aaa97208209
CoreNLP_0d9d1d757808f4b956d59d1fe5a372e10680b7bb
CoreNLP_1235e8c2c4a53348c725c256a153a1cf6e5b8088
CoreNLP_1386c8de577533aaf6c97bf93bf1137ff197b493
CoreNLP_14ba691b78e51a8e9cbb97dfd39a79c2f3acfccc
CoreNLP_2b4a0c1d9d2f2b27558951c1bf7776d96bd495e1
CoreNLP_2bb7a922ade19cad6f8f54336adcc55eec2893a7
CoreNLP_3065978a391204e4dacea84430ad1d5fa410534c
CoreNLP_44e8033069b1eabbf81f12b2134fdbe12a1fc524
CoreNLP_4b2836127960b28939ed6774ae8fec5031348eec
CoreNLP_4b7f439486e099b7a79a35688d45e01bb1fcf036
CoreNLP_526022e101f5d10253272f1b0bd9e64861ed66e1
CoreNLP_6036d6fb3d4ed5bd13a22d093bade2a146858a33
CoreNLP_61f9588ac3737ae5760afbcbdd587e5df1a817fb
CoreNLP_63600adfcdd8141d3a6c3543ad8b360e219e3fe6
CoreNLP_63ad18f5b3252894ee6a9bac28415fb9d13e820f
CoreNLP_6b2e5af7e0653ef5443fb7dff9795b450248e09f
CoreNLP_79a484e1bfab91cf1c3f8e4c73894bd2cff5e67a
CoreNLP_8aa6656b6b06d0a111a2634af080ba77cc423140
CoreNLP_8f3f9c0bce8be7aefa1921cbd3709dfd71b1a5ec
CoreNLP_93297375393f3c19a351478dfe1eee0b4ea6c465
CoreNLP_9680c71a52884dc18341aa76fef3b349a607aa91
CoreNLP_9b968138ca13d039116b168fe7ecbaf05d57a73c
CoreNLP_9f2cc133efdaddd872057385d24c2ae6120478c9
CoreNLP_a72db2b67eacd746950b2880da987bf5f18624ab
CoreNLP_aa0714dac503e8245e19db415d50b9f17ebdeff9
CoreNLP_ab68841ecd0f9ce9c299ef8dc54052af996a7465
CoreNLP_c8b050c55b3314f81eed3bfcc51b35c95d720226
CoreNLP_cb740fb45277664eb13dd1e4cae4c98485f88174
CoreNLP_cf6ace96078150dfb84bd5ba35e2cef765f0484b
CoreNLP_dc006a7bb4ba0707a3ec2c8aa4126edf987c5bda
CoreNLP_e608cc292c0100c32f7659e10fb1341d68428fc9
CoreNLP_efa2a798c755c014639a5d19e665ccacf1f032e0
CoreNLP_efa2d5aa7c254af56ec99168fb83e0f7c11c9fa7
CoreNLP_f457f86528e2f9ba92efa677f0e310a294783f61
cucumber-jvm_13ba17a0c8943487fec8ae9bda7ef1b5db143d4a
cucumber-jvm_6c19a595453278e38fdcda9cb82069802786fdfa
cucumber-jvm_a70b65ddddc338f50cf9ababaa38c56e53b50e56
cucumber-jvm_ce2c783a1942c292994e256283b7e7ec03c08d01
cucumber-jvm_d8e98d97290d39da24739214b5ca9b4b3a599d27
deeplearning4j_5a0904cb4c4223c4e3be42acd24b84c55a442125
dex2jar_23b07bf4dbf136736e92be97cc664f3e321a66e4
dex2jar_259a3493240c75dbde813d01445692847f2af772
dex2jar_3bc15fdae4c207473e545c0a6c63213e0a3db113
dex2jar_62cb70e220c32627812e41f90aef437f1b493a4e
dex2jar_e5c2684225f66cb0696a63ed52c66fb09678dd22
disconf_4c35f277d7f1db8474da5ba7d5a6610aea2c2c25
disconf_83650b3d0184b1ed2bba23ba464cf08ee4693cb7
drag-sort-listview_bcce0ffff2fee44504e363eb2278e3068504b83c
dropwizard_04e4c98070ab2da88d82eab7aa7600940278bcce
dropwizard_130958dde711e8870c5b72dc4f8b9b2d9d8f9c77
dropwizard_223311f4239069b578d3e7c0cf7f586289af4edb
dropwizard_237ea304bddb653450672d8105707d64127fa063
dropwizard_4d02d8420b321434b0995577a14e291bb1c5984d
dropwizard_556d92bd27f2cea8d7ce42080d6619122c38ac19
dropwizard_8ce65ceb3f32297ab59d8e305f5591d71f09b517
dropwizard_a1f7739ce78345b312c8d2b6298214586e237090
dropwizard_a60da8f05a3a6a5389207f43b2d9c6b013936d4f
dropwizard_c6b2f2648f8fcdee334d5c753f727d5a35440fab
dropwizard_cc2b4326be244c8f5aa4b863da253f26d001b22c
dropwizard_d57486476e7b2bc0db17f201be0cb09723848e01
dropwizard_d94f2ff5b5ab60f334639325e825f1c61eb36517
dropwizard_d9b4d060ac419c29b77793203b6b0fefe9d443d6
dropwizard_ebdfcb47a030730233cf0984aadae155ec138ff3
dropwizard_fba9a30f54fc576f1c2e45e2aa8f8a247648090a
druid_09524a8829309cecf1f5446395451ccd012a5c8d
druid_221156e25c6a8368fa7cd26c7b46660a3c71dda4
druid_39ad7f7a0c808f4a36310d078a5a2c11ee884612
druid_3a4c54a4251f35c67b40a56e274657da87f30879
druid_41bf1b7459905a8201b5d60bb6545fbbb502d59d
druid_427bea8bae3af37769a58f579767d54cb7af415a
druid_446e0861f9b89ed3c5b408956793054515a06977
druid_54c45bf012b26fd82934b5c5cdda29dabf98076e
druid_636c7667e60a14cc18f4735958fd766922486ae6
druid_6cdc9df75435ba869cf4a4d6a5f2d398439a16f1
druid_7ce110d5b6334d4e13fca74bae58f0522afc9fed
druid_8328666cb87ec2daf4a1ae67be86c8622a5d10bf
druid_91809146310a94d68249a1e9ef6e2652b0d05843
druid_a4045eb6bd919f79b17ea9bf778b975e74e777e6
druid_a50af4dbd590499463b96fbb2799974afbf4c7dd
druid_aa6143529bd190c3ec14d83ade381c02094a8b7b
druid_ad17bfc8b2717dd9e646f322e278e28e6a95dddf
druid_b282b8181d18ddfd3ba30089e65114696995462f
druid_bde289e71664e8f60d926bd884ce35e201543e50
druid_cedf72640d917a1d2df5ca88fb6a41d624ffd1ab
druid_e13b24599ab22b2c4eb5297ce47317caf793625b
druid_e5bb2501c8322c9e43aa723b899684ad69dc7a9d
druid_ed5a73fae62dba1bae5786445be7e535f9a3cfd1
druid_eda244fe02cb223832da39f11251255a504ae406
dubbo_14cbebf546792d3a25335f8a9854dd30d9e7d685
dubbo_2e658dd3e4784aa8404511e0a631a2cffd58545a
dubbo_3acf5b8af129f58b31bcdae876ce4c73f520e161
dubbo_5c2293d770a717694d0cedf4ebf9c9b2223571d0
dubbo_5eec017be7b418a11c714ca945b891067b5cdaeb
dubbo_bcb6eeec1d978d6d572ebec875d34dc64aeb5121
dubbo_c74ec13e2741d85ea66f43239c19b0103b7938f0
dubbo_d80a42cc69d16d3cb3391ba9f5ec2cc64436839f
fastjson_036d7e12abb405b98536b8a9f9ec16defb682a43
fastjson_286c1d20620c558f2d75f839d0217840095a8d12
fastjson_3e2add3c94eba885e4ecd6966c4b983e289e9f9a
fastjson_57867d59f4ae992eabbd8971898812dc4cb6a7de
fastjson_5d871d8d49e62c2a308aa8b0eefbb09133fd72b1
fastjson_6889b8113f531c149e06e5c3efacd57a6ae30953
fastjson_c4ccd8b750d970e58082b65bfaa00a8039f6148c
fastjson_f7236ba0d5a866d31b194e22c2a0fccc6f238f9d
flink_0cae1dd2419de0832f496dad480d8a11a9d6074f
flink_0d00e777f3d656eca6d889690db99ce37a35da84
flink_0f28095f9f79b49d45905e61709ff4fab6fedd54
flink_1c3c663ba7d55fcd33af1502ca426274d51d2ba1
flink_21b9d7485fe3df950479157067bbd1da306592e0
flink_230fd17f5b271a9e5bdb84ce8a8d360cf407c244
flink_274cc41a6a43e95243d6e7b3110e16ff6f0ad633
flink_283b039b2b8ce9bdc4beae8c7df3442d0eb4175a
flink_2976be58f6062932d6c23e63af3d3b4395ac461a
flink_2f9d955099f62c12ced65ab9f9cc6ca39a62f469
flink_31ddc61436d28f41225d329b2888172c8e06caee
flink_35d88bcccb8bd27629ceeddfe084d7e7dedc6d6b
flink_385b42d9fd284c23c48987dae294449740a70853
flink_3c4d5b1f11f09b8b76e3c5e6430b0c7312d563da
flink_48ce77c79d3efd0ccab2806057ff01cf435f7c1a
flink_4b141cc461127483f6cc2370655053f473089966
flink_4f49fc2f6f1761e84ee8c6572b14e1d9adc16abc
flink_4fffd60769bf1fa8501b4f371ba0117bddaec11f
flink_50af9f7f5c8c284942d04d72e4e41676827f825f
flink_59463278a868f37028a3391a9b9505a77584e0f7
flink_5dc0df588da9ff37e41685edfea041fd29371aed
flink_62bf8fd4813271c64afbb1509b31811c79246bce
flink_642ff291920b7eec294a37785f2fd0437c8c56a1
flink_6618cef776cf1c9ce67ff8ee461412110ca5ada7
flink_6b7a9eb44a285097eee57a08732ce247ca8e3bc3
flink_72638160b5b9eac20db8abf0fffc1b2c206ea051
flink_7721800db747d5a8b6b020e4e6b4906ad8e21d1d
flink_788d9452d8541b3ec7a11cae5d9fa605c2626fc1
flink_7cfdcd50ed2a43679d794494cf2594727b76bcbb
flink_7d34f654c3a1dcd470d1f919918e0d2c44e5573c
flink_80a145f7cfb5b9e4e4143108a98fc6dc404c6ab6
flink_8a91b07d5ab85b6bf100a36c5e26e6297a7f3a2a
flink_8fb9db26693f271429039fd46b54aa3765c93ae8
flink_92e7da30dab93cf23bcf64084f660426a0d9da85
flink_96b353d98f6b6d441ebedf69ec12cfa333a1d7c9
flink_9788c0dec8edf72356cbbd94a5134f22112df69d
flink_a1d2df6149491fe9a087882f88c87e09476bb429
flink_a33c7226df1ebd6d0deab62bead9438d9a1ff2ac
flink_a86bce5a176144e06d0120b804f3af986c325ebf
flink_ab3d6aa65220d2e024420b850bcc3078ef1cac15
flink_b2c592a87139c587777f9897613943639fac1d61
flink_c212701d56cfe9cffd9e5dc1e34c3483a50f8182
flink_c2a21ba17d452e861fc0b1b93f7c88139e6e45db
flink_d762d973a7e7c33f289aa273d84c2bba5da076fb
flink_da3ab6eb094919ada3689a16e14a0f57054e999b
flink_dfbf83ff6356fae4948cc44a1d0908defaeca45f
flink_e90ea9cfb030f938fc4165b907919e9f4aba01a4
flink_ebe03bfed0dbdf644542846734931457fcd964b5
flink_eece0dd05bc38b88fcb6cbcef15add7f98eab456
gephi_01927bb0609683d05a39700ee40b9b71fe60b6d2
gephi_2547a5a2d2e74a4fa37fd64923bc8cfdce991373
gephi_25bce516d60ca8448ed6bfb269dd89987395c0c8
gephi_262f36ae8088206c992628ce7ba1d60e5527b31d
gephi_2b571fd0a8120026c9e8d3a7933b1d5154576183
gephi_40df292ac802e1023d0208b497945d8841958022
gephi_762fa1b98d95fff88c642627d2cd546999afbc9a
gephi_79c128ee2c9a9f6c24fc6941840e5ef354d8bd78
gephi_7fe6cf753a90f8c4cc74992f194ae763180f486a
gephi_8639593ad0e6bcbdbe8e6fe3263c9b2550169942
gephi_8920576b404a74cdfc254027f57c0de871f13ee3
gephi_8a9e1bcbff1ff10cf122b23b3a1aa437f02a2086
gephi_8b0fec4451e8147bbe5bdbf29d235744c9aca01a
gephi_97a55a8b8d47491a632e0ac9d29d048b30e921f6
gephi_a076b497cd3ad3b559d00c145d3504441472a48b
gephi_a41b2c51ec5b88cd52889e6549751ea6a392a4b8
gephi_c9e0838e7d5852ede0d58e3d69e70d7c337f78da
gephi_d589551ccf801e17aa74741b64b075db79a5e2a2
gephi_d6c7d967025ac79eecbcd5b2a8c10cd6a4796b17
gephi_f3f9a1f632325d665b101c4d6cc0d950afa73377
gephi_f556986a9f40c6bbadec1ddd6b853241a2a84b93
gephi_f6872713218d72d251ba6c1cff02208e629072e0
gephi_fd4a4231e72db67151dc477b3f0e899df2216ec9
graylog2-server_0300c7769438375aa9f8a8692d18226623171dd9
graylog2-server_08605e65c92ff529290b534ee2de50117953362d
graylog2-server_0b8794222dd04deba800ea2a084dd2a3bdb97f58
graylog2-server_13013c8957be1dbfe1e2c046ade1b7aae9a04764
graylog2-server_14c2a57c072c6036ba7c9246efb4186fd8fd2448
graylog2-server_1607670a97fbdef587850a0fb848a9cee96a52fc
graylog2-server_1dc7ebfc26b5ef1f88e84702582715eb631202db
graylog2-server_27bbefef14dfcbaf9048bb9fc92e991bbc4a36fe
graylog2-server_281abfdf91e6687a40fa98c20a35627372a0d6c7
graylog2-server_31a360700bc11b55dc64e89c7b6f8b660b50bddb
graylog2-server_42e3f7a451cfdd7dc133f54620a4546eec0474b0
graylog2-server_4975905a26f33c8e57583033c4b5f65b09d3e99a
graylog2-server_4cd605c0ba9ffb261eac64f17d17bf1cba8a1368
graylog2-server_578bd281f8cb12f46ca902cd2b87b0838a831a90
graylog2-server_776c2876692132f850e6498419b2742f34bd8ed4
graylog2-server_7efab8ecbdc082c324799aa7e25490a8e0e5520b
graylog2-server_80ab41dff6ec63a591cb2f7450a6c8582f7b3fcb
graylog2-server_8b3c80c0bf286943881455566423a18c563c3896
graylog2-server_96a7c11c16fe2a6467cfcf2ed2366dc6cc56924c
graylog2-server_9d6f4a82fa1e6e132e712460c3170ca4db5bc9a3
graylog2-server_bf8a88d3edd4aed38360d6fb04941c3a826d5c3b
graylog2-server_d07651434e72e231669685fd57df7549ea988982
graylog2-server_d0c9f097be6aad63d0db653aa6b6ae4ee39f8159
graylog2-server_d22fc5c01a3a5b1eae2ff81136351e7f44f4b74b
graylog2-server_d71d78eb9d6a7aba9241bd7ab763de8d17019585
graylog2-server_dfb0ebdad3633308ed0016db3a6d1f9768cecb13
graylog2-server_eedb0efcba41f3ac52a6ee72792e37718340db88
graylog2-server_fd224aa6aa1cc402af2932c86b0b7d440995fad4
guava_0cb756acf8ee44c28bee8b9ea626e2a65cee5880
guava_1cc9b8303b38a123853b21e7ac624fd6b0464c53
guava_313f93c8c4ec073158317473dfbfb2aff29b1d65
guava_49d8026ac5cc8d1d0acd4bd79f0a22f5b8fcb8cf
guava_53921947d568c284669a95de482579ffe40f329e
guava_ad3640c6eec0ccac230a0f9c96b343aa025b89bb
guava_cdcc5397439b2e7441180a4712d7163afa451a6d
guava_d6ddbb7981b9e5b5c07231f8895bcda133019c63
guava_e68c0e674b22b9d49d402e0151aa15e8c645bd4b
guava_eb635997c3cd1f6ce6b809987e50e71f0e1a665c
guice_1e5fc1daab8364f1d16614e9013135a115e66e2c
guice_4d5804923d55353b214b8e2a45a6416a75665a4d
guice_7e6659ce3641a8747059ad871780490a79d1b020
hadoop_170f1b0afdac88e84fdf188fc90545ae8f21ddd7
hadoop_1ae4238dc21de898b3649df294e59aca0ee764de
hadoop_1f6258f535f114b88d9be038ffbcf23f7621dba3
hadoop_45f24de6317fc08dbf38796bfc771734d93b25e4
hadoop_47e4c2c121664a1e230785a8bb0767132e1e18bc
hadoop_97244b143ca72cb9dcd86b428f9408928985b545
hadoop_997cd514c7c945b46738abbafd56205342acb4a4
hadoop_a09f101b1bcfb33ef30480bd18e873fef7604169
hadoop_a116e1fe9e7ad929a81502757e6fa2c28df394af
hadoop_a6acbd2403be12f2c9d24a6dc24eea6b0c530c0f
hadoop_af72e41ee154770bcdae7eb9e108035fdc2f2120
hadoop_cc671349bc1c56d597aedd244d939dc248353d8c
hadoop_cde65024a20d660e586494ec6a443f8732fee068
hadoop_fa6b7fca7ad9833a474e7890e6281ae0df1f27a2
HanLP_a538d0722ab2e4980a9dcd9ea40324fc3ddba7ce
hazelcast_05a5c3a9b96fb8b0e3a520f4f0b15b4a5e5d7564
hazelcast_099b2630acd1e1e18e8069a1fc3090287007a16d
hazelcast_0ab2704c7ba19c8a41c97910a6adf537c9f38044
hazelcast_0ff079b4276fa4c7534d0563fd31f6b0826fdc17
hazelcast_1092a1d4b3c5517a7f6352db53557cc5ff4135d5
hazelcast_117cc1a32b6dc1a65bcc269a5962047ade56f4a7
hazelcast_12ba6c7f97598778c6034c58616508b843bc4ea7
hazelcast_14520904ee7fad852e9c147f7ec2ed6d515f6321
hazelcast_16633c5bf8c7599b402f8d0ab7ce457ef418a514
hazelcast_16cc2fd8518fd13cfd72f84e8e6f469cc590d11c
hazelcast_1a8c8a836ac7d98c90bbb2a837e5f902a949213c
hazelcast_1c062ed52ae61ec3ab22b01fb7b9e2e15d2440d0
hazelcast_1fc5a3d567e5854f3cfe9a2e3f0cb8b808515db0
hazelcast_208c7fbcf5f2d49ae1a0b986679cbe6dd3933403
hazelcast_2106da01e9b791ca7d28dcbd3d68265c25190c95
hazelcast_21186d3c4cf243e383215d106b2228cc09231bc4
hazelcast_25ab2615a8237104ff679c956ae237891b9b176c
hazelcast_265bf95ce57989d414abb9296a87093f78ea9492
hazelcast_2778cd8ad6b0f126e5250cc3006459f06991d3ef
hazelcast_27e39646c2e19bba26c29f6ddb1df925e036471f
hazelcast_28cabcde96679f2e2f29ad56983f2e51d5b838cd
hazelcast_29df30760cabf94b75aa00035ef75ce465775916
hazelcast_2b33aa6645b04dddf1100d2aa267b0c1600b431d
hazelcast_2ee3a88dcc211304bd91f236a5e09c98971a59a0
hazelcast_32f07f740b72a03fa16285f76cc70f3f3b45d14e
hazelcast_341e475626f66153f92316d1c74fdc156664675b
hazelcast_365738f32725aa03b5837e5f5bae06e41c75b2ac
hazelcast_39a50cd74d79cae37b1bc08ec21993fc14775509
hazelcast_39dbb74a2606ed071ac998b9021f522e7488a372
hazelcast_3dc118f61cd547d7679d562fc8038c59372795af
hazelcast_3f0fb5b3ed32cf28b5a4ca49b8eac5a4bab3f36b
hazelcast_40b934eaa728144d22ffcae2d3515b9fbf0a35f7
hazelcast_4487bd4c33dbe62c184c3257fe4b18126ea474c8
hazelcast_469c7f4b816a3fb7952e7ce9ebdf5aa6f4c15346
hazelcast_46dbd775a57715bdd5685603b734844f71e3d095
hazelcast_47c6a38b50e58d16475615f81af0f343f1401d3b
hazelcast_4e929712545da7378c84488e7ebbc3d351ccd250
hazelcast_589da1192074fa1fe0336f05b803477b85814be0
hazelcast_5ab0740ff4981396e636b637f5ec53ca1e4d1f50
hazelcast_5c387443a641305b64f25932de36de766d1f541f
hazelcast_62cba9fe2c42bbaea8fef30c85a9e5d7e9bcdb19
hazelcast_639ca0c8d5f1e74a3dad3bb0014602bdd57dc602
hazelcast_6d4e9989f7d371e2871210eb285562ac4821d856
hazelcast_6e414e6d162d9598775f718d5dfa61e88e91d4c6
hazelcast_7393ec77e99583c5d2bae0af15fcafe13c34d54a
hazelcast_740420fc02fd0bb5f822e095a63ea27bdcd95ffe
hazelcast_75655f1848bd22e798f10de84bb6caffa9d6bf2c
hazelcast_761193c2f06e121a13c432fd58c347adba3302a7
hazelcast_785123b79564b38f7133d5f0bac4234d6a52e05d
hazelcast_7af4bae1424f5834e01682de8b5e152427db4217
hazelcast_7cb7e88237bb1d551d579bc203e2dd0ccc51ce03
hazelcast_7e9f9b4d6a2567af69b9b21c93b8e967cb2cb384
hazelcast_808b58393a088a53b7604817ba8ba93a71f2ca12
hazelcast_815a107138744e16d3d2715a0b7251364e396051
hazelcast_81957f2b062b7f9ee2e3d4b3b4ff420e460f2018
hazelcast_8561cd53e8c439965aa34c89d0e5016f78ca7e89
hazelcast_884163c6775a5600123a026c4cd7e0d91b57338e
hazelcast_88816931fce075ed54a626004411551a59f999c6
hazelcast_89d27015ab1c411d1ae58cdd622abd2aac5c2c6c
hazelcast_8bb900b5e9a0e70083a4b68d1f1c6a6c425d8048
hazelcast_93facb514e158589060eacc69e50cc7ff76082b2
hazelcast_98f6b35ce69cf3fcaf74e8e657e657dcfc80d58f
hazelcast_99fd68b6a86c6f7c9f6709103e69a047ed37847a
hazelcast_9daa0e6cc98d8dd2cf17f988ec2dd07fc3608d45
hazelcast_9ef24160735f7802ad86b3b98b77c429d6a87475
hazelcast_9f48ebce5cdf47682dc74bcf51581b88527e5f92
hazelcast_a41b9673560ac361710e48073a32500b5780497d
hazelcast_a508cf63f42fb7cff448b7d9cb9db296eb701dd4
hazelcast_a5259542da3e1fff5517b0e99b7d9eebbcdd1bc9
hazelcast_a93c474127690f174eb2c027e6fde61eba3d993a
hazelcast_ad6f5ac1e28740d445ce7612ae2aca5ef0c9f6fa
hazelcast_aeab4504cd1d7f098475d56f689d07c5df1a4309
hazelcast_afe6dc8a16e2bf30997cca8355aad09f2766ea0b
hazelcast_b0273c7b8bfb373ab336baae7c981f4a79fe3032
hazelcast_b09c7e0a09669384073adecc4e1048de59a7f8ee
hazelcast_b2fe91c9b8394067bccfb56650dbe376b100a890
hazelcast_b6555180a56d77e9043823160de051498ff480da
hazelcast_b66741edf56e097d77248c2d1b59ea19843586ce
hazelcast_bb1d8d79a307b7a782172b3ee1fc420dd4e1c127
hazelcast_bb93d685076a16d3cc1a8bc2a3336fe4ccf01a22
hazelcast_bba8ac082b5f2377770d9d497a9b83fd38ceaf43
hazelcast_c107859092914bf1f6c684ee202f309eb60330e2
hazelcast_c3596c8497dd857c8277bbe0cdfb96af8b9f5602
hazelcast_c453519ceab84e7f87a3e00f82ede570ef35260d
hazelcast_c4bf8d3ca79eb82117cafe675e00ecee65f64be6
hazelcast_c701c832f4baffa635088b8e3e57a900eda2aba6
hazelcast_caa11bdba06ae97828b9dbebf4e6dc5dbee4aefc
hazelcast_cc363b2262e673bf4effe5ab986fa3b2dc45ff97
hazelcast_cdc3ec178ca63ba1cb063986cba2c7b78209aa45
hazelcast_cf66836208a0532253d602721b3279db0b3e457d
hazelcast_d21d70eadd9b64a4337151b80d9508826c7bcf84
hazelcast_d8f0df6bf2470ccfd182a554b2eaecc66f28ca9a
hazelcast_d9cee23da79c7368a47a894f1bf861f04fdb6f00
hazelcast_dba2faf4ec3ff3e3266ead95b962a0940b33ff55
hazelcast_dd3cd7aa7f719f1ebbd8d191496bf304abd67f20
hazelcast_e05cd99b38abbe3bbeb21355f87ca992e4abe92a
hazelcast_e0ba13a65722ac712636b5065561fcd5219ecc94
hazelcast_e12d6fdf8c008b04c9192c3297b644d245a7bcde
hazelcast_e38702915ee95c95013fdf6ec56c0ed7f4667342
hazelcast_e6cfbf3678a536939926d4bb809cc4173c0a26ec
hazelcast_ed4c6f40f0d1383f7457677f1899903d764eaf17
hazelcast_f0f3ef4295c3de88be76046fb358197847146905
hazelcast_f7e66f06da3bba25a92e7321a57023851c5804b5
hazelcast_fb82039126e694553eb3cd13820ea446f4d0dec9
hazelcast_fceec74c60a1d72c1582f9d8871cbe1a0eb37fcf
hazelcast_fd00b428998b79347ff7bd3489d73603a4fd0f8b
hazelcast_fd7865e44d4101c9d625c5835e14a2851a8b34bc
hbase_0641df92c5dd9d8d92944e9165ffe5f2d2c9c9ec
hbase_10bac1971db2282b4346f6882f893dea7a89f43c
hbase_114fe7a81e640b1068e450fa4a1cc20e22e50b3d
hbase_1bf409f05285c855256698f91988202341b2853b
hbase_20bc74dff0cf1e1834e99d1f2499a3f5e4c38a36
hbase_2439f7a68843ddff5b468a203e5856705e574599
hbase_25c95d8dd9ec2d4e712aaeccedec306be41a3c8a
hbase_2be3f90fa6dac2447ec3106f0f783c52e294c7d7
hbase_34e23fe425e62f240a65c435d41adfbbe211522d
hbase_3fd59b0ba99b54cc6943da43fb0ea1cc6ca02199
hbase_40514e7f4f12edaaa009b529a2280d9a442989b1
hbase_40e1d9174e1dd15ed95b03a4cf8944384b1aaa2c
hbase_41c8ec7aeae859808a217bd7a561e81be7e3c7ac
hbase_4409ba741c1e9edc6a7b9e47829343417a339f9c
hbase_51334fb951232aa56add118d142e6b82da204494
hbase_58c20f3c76f7a73a355e36e5c0791d6c3522565b
hbase_5c77a7dcd455f7a6e0ba3f289266032be687dc4f
hbase_60c8f76a9d888bc93be7f25eeeb5623143efa794
hbase_6d04aa179485f331deff328f511f9b494bdb4d43
hbase_712beb305e349e2c6c464e2219cf4cfcf10c592a
hbase_76c6aee2c6d008e6f2345cdde262ad9ffb338afd
hbase_7aea38118e7af7d2c5e1ce54ca135b8c0261a2df
hbase_819b06d62145cdcda0a755497a1bedff0e68a450
hbase_8af2dd3da2bacbd93965edb9de9d5ba3a8bf9ca4
hbase_8b75e9ed91c0a6c100917d24cdb29e8a4b14390e
hbase_8fffaa7778e75625710adc9e458e7a549c525ce9
hbase_97b6100e54a7df41ca55d48c396ad5d7bf925c98
hbase_9a1ba2926a59ce9fd80e6355fabdeccdec6ad19f
hbase_ae27a2bc3f7681fadf1bb8e9a6bd9c79e4d20d29
hbase_b6ad337ea15a9957a0a1089ba4dd331013d25f3a
hbase_b99382cd1addb11824465a0aa67550b62a95216a
hbase_baf3ae80f5588ee848176adefc9f56818458a387
hbase_c0f265384f09d5b36e2065083922ba428edef798
hbase_c222e2b4862045d5ef7040103e1c50b6593dda20
hbase_c6b5f4fa0d0e582828c7f6df1920876ae9e806f1
hbase_cf35402980c9661ecfb22593da783a0cb3dfe913
hbase_d08bafad1a5a9bd52e494a00fe7434a90a906b33
hbase_d41dd79f10b62df7ed89aa6b048390bf2b440775
hbase_d6a4a3dc331129e949faaaaa134107cb71172928
hbase_dd9ac0c0ad33448a46b5e61334bf86975fd9f779
hbase_e74cd24ff2229b060e219af33c3abe5cbf1079d1
hbase_e896f6d400c7ad946141adbf7317df7c680fcdc6
hbase_fd3e0ff191f3e26b09f52f538748133b65f40740
HikariCP_31113bf0d908a8fc194f078dae57b81494db7126
HikariCP_3647ec7fe4dd13d25303a82d24af4a2e38e62e4c
HikariCP_3fc263b5e2bf3ac0706673a5a51633d86ebf0b2c
HikariCP_527c8ce59c1c59b317618a3521ab5d4f84e08246
HikariCP_832b3a571fb9b086fe735cd05984dd890cf3e985
HikariCP_8f24815a4a794c1d01bc65696ddc4628a82be322
HikariCP_be99efba1db6765c6b1bfb996025a408ecafd0a8
HikariCP_d4178863659c7f911f0833c8c126e97e7bbcf702
HikariCP_ef43827a7b481bc19b5d738a4c94b62294293eea
hive_03eca7708ef2b1d9bdf3a4265639dd3d5541ca74
hive_12a6f937cb623ec89e570883010340016c5493a3
hive_198ab0e862cdf33e8dff37bf24676ffcb392ed82
hive_1aad3be28ffd06bf56dc743d4738fe850723cca4
hive_21810014f007080b96d6fa46deeef760ec542934
hive_28830d90dc3031fa489a6cfb8ef05c535184c09c
hive_2ee080d120a7eed0dfd36030c20c617eb7071e7a
hive_37662e89fb569a997ce97d40b1e7d13cf2acdc9c
hive_45faab2f4c6252971d7145e46aa336784e28d602
hive_59ada6a131a7c551ba6288b211e108acb5806dc8
hive_5da67fc73109251de3572e781fea8dcf185b7fc4
hive_696d6e861e096d46a0120cd751887c64488768a8
hive_85c0bc256211160178d49bead3f228b78a21e1c4
hive_8e55a16169d3ef6a9e01596ddb6063b6e625029a
hive_9559306c3698a453609fe1ea47fddf219ca397b3
hive_9ada10f883aef37b9a87984fe499cdc04e4f1f06
hive_c9a67786483edaf7480cc73cdec2e492a7f16f46
hive_ce4cb40fd95ffc635374e074be1f9f8650dd57d4
hive_d1cd1f5dd0dd38585b9fb2fe3af369127870583d
hive_d3a879a7ed73895620c2dbc6f6ea2b321ecc6574
hive_ddfab2213db771b738d1f971e36e664f5a02f4ab
hive_de1fe68b90ff9e29a21095035c7ed02dbbf35f26
hive_f5c5862539cb8eb5934c5ed5f582d03342c0ed53
java-design-patterns_56ba78a5e905bd6d049d3d17554e9f6e24d198a4
java-design-patterns_a386d4266d33aac999e34056d35c59bd73259734
java-design-patterns_b9ac0dc6a3d35b9a7131ac025508a35be709f0d3
javapoet_4d8567ca0f96ad746c42291da84240b27e8f0110
javapoet_5f4072b8d9d62764339e8ce79778313396cc167d
javapoet_67bd94d79728595dbcbc4fae3f28c51075d788ba
javapoet_b1c51f175484ddbac853d12e5b31c3aa6ca10bff
jedis_17213b9c352ff8d1bd6042405ccdc96393b279ba
jedis_27b9eba0c037a28d6b7c4db6db026a6d50d6d171
jedis_6147ef7d478556e2122bb4eef6bc023277c7cbc8
jedis_655dbb064105b0aa5cd5afeb938ef9f39636cd8b
jedis_80d2827a6e14b27d3411bb432b1a34920315c6e8
jedis_8969566d0926bdd2ef438e8c9ba6e8e196f7ba7d
jedis_8a45aa30a6277ee37f706c339024e4411da5c7d8
jedis_98dfe7e6b2c2d098a216c1bd60cf9deaa83098ef
jedis_99768f3572346de16f2e9985a957ed1f8119d66e
jedis_ac26f913626b782ca2c41fd87a46e3f1ebf096b3
jedis_b7120ee559ccd225f7392cbe44fc55835a656710
jedis_d8106859f08bcf7bd53c64d6c49c24d784430ffe
jedis_f49eb6826480f7cf18bfff100b3753f3657d29fb
jsonschema2pojo_32df8867aff59d9d5b51d92f5219faa0657597ae
jsonschema2pojo_370d838e8be67d9154f6017c59ae6036e6511d2a
jsonschema2pojo_6a673c6795cae92ca9692f6f9a67b610446dde77
jsoup_924c480762e8af2ece8da553f7fe90244085341e
jsoup_bb16e0693819afb821bce6943d8cbd178266a63e
jstorm_49f5de063567e4b6d2f8cace12214a89af97dbb6
jstorm_da549108253645f6f9a917ee9adfaa9cef5f9812
junit_014f2410e81ed3ecc6b82fbac49ab345aab6e90f
junit_3a5772dab5ce8f3b2879a19009357d425e84400e
junit_734b6ba797026c223aa686496581f7124249be9a
junit_7ab8d5e4fc2a796e0e4f4fd337fa5d15d07b0993
junit_cac8c34ac61668aa269366408e613ac0ed5db729
junit_cc87f655c2fe666d0f4e3322f37c570449ded9ff
junit_ea96d2e30b23dbcdb5959f5732f4930eb2536f37
libgdx_0078644cab6199cf203a6dad2738627d36215581
libgdx_0256c6ceff897814a8d532fc43d6006c8b9bd7b6
libgdx_05aa59bf306e82c555305a164ef674b498a6c5c3
libgdx_065aa34a06edfd7801e3d3c3c7a8e276386ae5f5
libgdx_07b041b58bd8c0780c744e672e9dd256a933b841
libgdx_0806d2008c814e68df03c47319c32134763c60c8
libgdx_0867fa3723a28ad280f7512a7b68141b58215209
libgdx_0badaa6c3066bf28b652ff446dd672f24285f713
libgdx_0d560643c720ea2ee7bc89d6fb04a0668aa3d91c
libgdx_0dd6d34268482b3b1a72439b111e9dbbe605852f
libgdx_0e371e64ca957e61a41309c7821cfff946274cbd
libgdx_0e597ee397058f4b418d5509df27ffb332929ef1
libgdx_0ee231215a264eca4b0f828416672632162ba65a
libgdx_0ef571a65fc3e299a1c94cf24a1233a6fbd0a0d1
libgdx_0f2ee4e98d13150189f494f15fb94626e35b06b8
libgdx_0fe895a19c01ccaf2b5080170e17faa00d8b8058
libgdx_10704fa2b9040e5490a994b1f6b1a833f8dbb9e6
libgdx_10821c9f522d7897c0f84eaa2b14af6d90f2d2fe
libgdx_1176e8a1ba798ec3d6967b911f5d8f1c5f754691
libgdx_12c4fde9a41b885359db7aaf2d7917c353ffd638
libgdx_15408f1e26096217a62737eb40d394413befb12b
libgdx_156f7c11ba805f4c2978f212340270af03a40375
libgdx_16123c79a01ae52fe40c908fbb94502e17cbe653
libgdx_1c6bc8ead71b0f8f2939e12cf66a8c61f9fae26e
libgdx_1e0026f2c14c2f6b5d9a191f872f996e01777398
libgdx_1fa1669dbb0e9f63856074e1691985fa476166f9
libgdx_20c49903145fbb36556b88e65052aaf96d92fe19
libgdx_2128c76abd417bcdc41c6120d924b618593e9fca
libgdx_24be4cdfe2a884863ae01bea386f7927120d88db
libgdx_24f4e5797f7957b42069dc0989afad49bf9918da
libgdx_26c95b4fb4e9095b646f07ebbf8ed517d353e89b
libgdx_2763f44d32286938fdd6c5afd58d4a69bc8bce8f
libgdx_2d9bdfa52c4b495ef6c5543c6a8faadba452eafe
libgdx_2e4508e11e0b6d8a4634dff159a8ce3e50c133ca
libgdx_30024a16affda18949b08699a4d304852e1e1643
libgdx_3065ef5006b71e1369756b451da4c0746ab20b8c
libgdx_357d9211c5b8b000cd46dcb0bace2511cd3e03cf
libgdx_36861f2d8c45c809ce7d13944320bb144dbc6757
libgdx_368b10754484f03bf5381ff7255c0d3c6bd01ce0
libgdx_373af508d4356f18a0303562df714b9034f31b08
libgdx_37aca9f3634da826b4d62a37bd35a39ba1bc748e
libgdx_385df398dbaf847e7c7b6e115165ab4b7964a505
libgdx_3a7227189279ee0218eccb05f5483e1c465ab626
libgdx_3f30d8dc28af14bdde7f234ce609c7213cd8f100
libgdx_43419c1f2f50604ce39a5a11ccf72593b7b1abac
libgdx_452c9ef3206d4dbcfec1b5ea0f18621f7d33b6ef
libgdx_4643b615735176e00d9731ddc08105227ec915e3
libgdx_464f6caf86eb77fba0db4b2c46eec0a22108e8bd
libgdx_4c91e104e4be266b76991795553f1d3088df61fe
libgdx_4da179382de208b5d63ca0b017cb2aa25ba4461b
libgdx_4e1cc538aaa75a9d0e9514effa6e3f3beeab3985
libgdx_50c8665ef22bfba8cda58ba7266288212cdfb301
libgdx_50d44eee3edc0cd1317432c22a52d37f6afb428a
libgdx_5a33ffe60b1fc64fefd0a17523492763562febd2
libgdx_5bfeb071d07d2ae298e5c519991fc488d356f34c
libgdx_5d379423cb8f460bf7e84ec0f6c290dba044fb23
libgdx_60f834a71a1c149c1254517b66284bed04d4c321
libgdx_621ddc7b73cde1cfda19d39c6e55848d38f009c6
libgdx_6736396cca684c701b49a1ee4df5b119b3eb73e6
libgdx_6b851cfa71f0ecc1c687d1c4be3b6dc07c1a8adf
libgdx_6ce72c5746cc6be1ab0fb8ab62e73325569ebd50
libgdx_731fd67b2cf77b16c3a0a3a6e2fed3fbeb7cd725
libgdx_7358784c887e9fb135e42c7083a81179085ba116
libgdx_752be931ebf139e3a74ab3e477e1434875a7ab95
libgdx_7b16e4b0f1aa1596f4ede7b3a7886591c42bda05
libgdx_7d62b253e29d534799ad32a82a4f56a5bbfa9880
libgdx_80180dc6f9e4ea836d42794152d84f8f2aaad66a
libgdx_818d80d09cbc64acc4ca4c1318f3ebf7059bff72
libgdx_829617893c4e84ea369352a7d5678b0ef619977c
libgdx_84746d146971c06fd634d0fd34e282d136adec10
libgdx_87fe0b747fdf43d2ff21ba8b59fc6e8e995b49eb
libgdx_8998e8b7b968250096364d48006a5c8708531290
libgdx_8a436bdfd87bcf159009e9590034c7c7891aaca4
libgdx_8a4e2517a1caa6472add58ae3f74233060c18f33
libgdx_8c4de8abcd7ae84928b6290a51b4e680b9ee9ae2
libgdx_8d90e5cab36c38c61a042eb94079a2b2005e3c94
libgdx_8ed949a46db4365019657bd235783fd3e70835db
libgdx_8fb6db621f6a84ea8c6c5c5672c1c89f6eac9dbc
libgdx_932ee6484938ca8aee7266efec14e85f310c07b3
libgdx_93427d90431acb1ec83e5708bd0ef6c0281369c9
libgdx_969f0110339763f523cbd41d2901b4fad75b3762
libgdx_979ce2a33924be23a6343640ed0c038af5a33740
libgdx_9914977203c173296cb18024e2447cad3a3dca90
libgdx_996cadb3e79b248d2f2b3e584a1ea9e9f77fc1c2
libgdx_99c80d46120531f2e404425063587cb9961a7e3c
libgdx_9a504022a113f69e820dbddab2dcf1498af86ab4
libgdx_9cb9e88e6635a0eae34b6f035363da8d97b003fb
libgdx_9fc6bdfc109d68f8778b8400279af5596e3a0c93
libgdx_9fdd285d30c306b99e59984c535fa1988620d523
libgdx_a39e406de0138869ff9a36d226accfaf50ee67e2
libgdx_a41179fbba2512dfa51a1057f5b32edbdba12c26
libgdx_a6e7fb22578c900a5b806d2a429a05d81a722635
libgdx_a756acefb8a186c8bb2d8d4d899e2d18e1bfd576
libgdx_aa57782a2a89cc71a8f6b255a758ea5ff4bcc3bf
libgdx_aa6261fc69f53add198da737aeb9c58c3f91edee
libgdx_b041bcdeb2b96589efd6e6058fb0ba9dc630e949
libgdx_b1d09718e2c2ecc5164004595f53ca3ec76f4711
libgdx_b244bf9a4097cdc5c072674f398a6884e935d049
libgdx_b2502762d7f643c89a023de9c31a4ccddeaf5ad1
libgdx_b6b9cd997b689c70f194da8517910d3bb2d8e843
libgdx_b73112717db734c71c7be9122fbc4c48555e53d2
libgdx_b981c761276a1a9aaedac51c10622656271dc180
libgdx_b9c88d3670c151c40d31146d3e2dda9669646fb3
libgdx_c68404583edc91820114e44d681db7ecaf73d6f8
libgdx_c7e59359c7838a8ef6d2e724125b59a8668fb144
libgdx_ca0e2b57ea886bbc07796745d077dc8773c93c5f
libgdx_cb9f6dc4ff4aa6b605c18ac6c1258d7e94e33831
libgdx_cc848b176103cea64f8abf17f6410fea5fc9d091
libgdx_d18d75cdfc36f74fed0c8df772835f38d9604b13
libgdx_d3cf1e5dbb63ee6e35ef5d76e9f74ee06a83681c
libgdx_d4ad535a861f0d63517c64b38ee310bfdeccd3d3
libgdx_d76ba8118cca9f2f1c4f0e89e2dd15a9db02f7e8
libgdx_d78e066362deca6a9112d9330524825539db447f
libgdx_d825792ac494dd0257e0c2ec7acd60100ecfe700
libgdx_d8b940a55b7cf972c9daf44631ec873c5f8cde7b
libgdx_de8de61a368f5c10eaff3a84a1ca3064a5cfbda3
libgdx_de994d857881dbfd727485b898152ed5422eb684
libgdx_e28fe72178d098dad70699cdc5722e13b2d837a7
libgdx_e4a9393a9957e7f6e114ec3aba69fd849e2e1dd5
libgdx_f08f4f7b935930bf27a6461e7335d128e5919c1b
libgdx_f0a3f02efd290611d0c8a9bcd7bead1760edae81
libgdx_f0e67a1474fab9528737cc703fde6c35fdd5e288
libgdx_f3a4637f6e1bda0ce990c53e92ead48a057a61f8
libgdx_f4dec2bf664edeb4a27d91b7070c01714b101970
libgdx_f4df2bef2344745c127e9be9fc6610282a01e5bd
libgdx_fb85c372214216ee1e0e04589c036fe5a5111f96
libgdx_fbabe43be4be0d8fa0aa55b9d83f41940a4c750a
libgdx_fcda34896499d9f0c29ea5f000aee28854bdbfe2
libgdx_febe9af92ea9c5b2e924788628b928bda8c7d1d8
libgdx_ff779778bb4c3ded0c996f5b7c45c403c18ce2e3
libgdx_ff98a415f04524e5f459e321a71f77d471bf776a
metrics_0d01e95b383ee463fe1b3f5695694b7d866606d7
metrics_34aa92dca9aee7ee6e0ba551e69639f853df15d3
metrics_427eaad53e8d6d42324d43993906238af4884659
metrics_82039a274328f3338f0cf5350111da858c8e6947
metrics_844c29016bc25ac7114b290f2728d20ca6f81910
metrics_8ab6632d7aacd4bb08204db98792616a53b40cca
metrics_b899af7d7c2b9d461ee1741e98ee861e2ed55785
metrics_ba7c6a38ba78dd2db7c8062509df342e22c25b3c
metrics_f4ab483493a6b24e9a991c03cfd5b0b5cdcbff69
mybatis-3_01736c9cd437a919f62a5666cb86f3b438518442
mybatis-3_2cd3b6687d9f6a87e97bb5ad8c6f7fad84617a4a
mybatis-3_31ba2fe3692c87a61c248683f37cf5b7061afc8e
mybatis-3_36fb7cbbe65c2d18fe69ebe342e12834bc9225ec
mybatis-3_391c72ee6048a694caf77ba8b148f785fb3140c5
mybatis-3_6e5b82f6f987d5dee5e5dba4dfbf3e3873f5a777
mybatis-3_86587646a01b9b0c33bcc9f929352f400234561e
mybatis-3_8e01c1c07300c0fe2ecc76003ea7a01d5d5f47a3
mybatis-3_96b6a1313d3c25e4ab7b5f2604385311497d8b65
mybatis-3_9ffeb75057d541530b7ff410cfe220df26c893be
mybatis-3_bae2a6dee9b9ef115e45180bfc5663a6bca14225
mybatis-3_bb1deb727a4af721d211154b51f5887f3d4c637f
mybatis-3_c5d53ce3537c85388f898ddefd631fbb694fabe2
mybatis-3_dd385dad6395af3f61aadf345d8eb6f4cc53ae52
mybatis-3_e7919feab1a5f371806a2f6d267e84e9542e3f26
nanohttpd_220e1a21e7bbb831d06551c72799dfedc1db979f
nanohttpd_450ef8e6a4e75fa0cdcc4b00a4d26c276bf5df3d
nanohttpd_467524f458707e6d4cb4c5275e79fbfdef99cf6d
nanohttpd_52af4d8798381491cb1cbd467e6d0288ddea42b7
nanohttpd_882f385eacea73737f9b0bb0d7c772e80b8dc63a
nanohttpd_9fbdbfaf9eb72f29f2244919051b9d7c533ebf17
nanohttpd_a3481989f3cc7d7cd69685349fd6f3d2b370bbee
nanohttpd_e6b3d8f2f742d16a2ce91f573740a4aa727fc0b1
neo4j_051f6ab285eb21d16afeb87ed5bd9cfacfc67e47
neo4j_0bcbec35696b857624d7bdf4ec182776cf3d1859
neo4j_222497864a3c8b5e27d0d269eecaf46e1e36fe4f
neo4j_23efad96e074ea4d590b15eb16aa38c3f9daec5c
neo4j_2d45a874c45b154bd3ab0ce56f2ecc6a2ae6e8e2
neo4j_2dfcaeaf25ce13a46289b4917e7e2d4b9cfbc63f
neo4j_2e87cf7e8eba0f34f35f89869eabd4815874d607
neo4j_3222ef67df50f7655666270cbee52282a7de974c
neo4j_39e81c6df2ac7b3afb254e5c36446c7f42150bb0
neo4j_412b8171a48f65da220a9fb2ae790b6c67efbb2b
neo4j_5116cd0238a9974610e7784e65e4acaf0e5a4b35
neo4j_51dd6b7a8bcbd82502782e8ccfdb4c88fb83b535
neo4j_5398f108bc3eda6d3e1532baeb08a9538b1c9cee
neo4j_571179a53d148489ccdb753282d66d1e1cf8237e
neo4j_5bc5353c7899d3a51ffbab8faedd6ebc95587f6f
neo4j_61572af5c51afa3897afcf177bed5f8fa8dd5b4a
neo4j_62a4bfb9380fad4992d3e9f6347ad7ff34d904b7
neo4j_63afc67ecfc2e5779666c02e98cde9cc16bf0dec
neo4j_777fd897e19544709bcd36e89b4f095d5f0bdda2
neo4j_77ac46d3956f3231c8e50da43ceaa0b8ebdc0f1a
neo4j_7d985b79863586d5d5670762cd9440bcfc263d6a
neo4j_8998c10c1304fe250b00b75ce8805065dd548236
neo4j_908f9202b6c597464683f0ba642d57d0deeb5c70
neo4j_a00413fae93619b9d134ddf45b6a86393aea1d28
neo4j_a9cd199b1086cf1d996764b54caba53b95d3727c
neo4j_ab83c919018792167f0a1de5aebaca41432ce7aa
neo4j_c6fdb5ffb0bddea0463db6ef4a8277f632cfcc51
neo4j_c982dcf082812f4fdae3c7159ab9baad233a1799
neo4j_daf23cecbdfa43733374fe5b4f07449ec0668521
neo4j_df5e17af0545242676dd19991d00b344e8002c7c
neo4j_e18406f2f4ffdce1cbde05bb5c9555ad36159d39
neo4j_ec709731b83a26e43c22bc6299ea29c180d260d8
neo4j_ef4040fee9c8f47855cd8d808e6b79a1293f626e
neo4j_efb0b0186f39af30d3d849f222f094ee9365097b
neo4j_f8ff8ca13af40da93d51418c4a439509a00ec24d
neo4j_fd480244d5a5992eec4fada06e11e67d07494a7c
netty_1142a1aa062ec85ca3d2f3465afdaee56fff586b
netty_1881b8c781f3eea2ff59c1d78f66af4284d9e909
netty_251bb1a73961f785ad12dbb3ae92830eca70b8cd
netty_25c7a783a788b04f148c56f12d6efe1e11d093cd
netty_26b56d3addb34b409bf10b819a1e70ea2ad46b71
netty_2c390ae66b42fc7f28e3aa3b5f6eebdd1fd1cbfc
netty_340da3e97b403b9fb78e31881d1f2903f3257e4c
netty_39b57b889cf77f38b25f45bd38fad58d22a4bb73
netty_3ae343b768bae5973a5634c8e287ae1173e30248
netty_3b5dd4e9dc0b6e350d27a2628b3f37b2483fe4a9
netty_47a3783d6cb0c09ee6c78c2e461bcb58fe879387
netty_5b239150f1c02189f2a3e17c6fd92f652dc267f5
netty_5eec9ac58cb4f2fe2518ef21b07845c7cf4c7b99
netty_5f2f072d694275f750d1ee139386cc64a0670f4f
netty_6156922ad6d8d2c4965dbdd10f4f2b65b13b9e76
netty_65eda0902d61438898fb15acc5828ff68fc2160e
netty_666f57a35e04790d33e72978105d4c7488e4db18
netty_675980c7ffbca8d05218c352bccca4ca09e57582
netty_6e0e38f09f74fb633a33cfd5c59265518bcf85be
netty_7b511d8200aae05bef86085f9b101d37b9fce4ef
netty_7f8408065b6d1fb142a51368bef2784cdcbe374e
netty_847359fd36c28fa360090459d1243a9603e47786
netty_8586d43b230930ef9c46a9ec435f5633bb0ae43d
netty_87007d4eb80705f0a1784c729920effffc80a45c
netty_8d431679d7b2d35e68b1730aa4bf896eb740bb6a
netty_8df2524bb0661d3f99a5552af297e5e47ce5d715
netty_9aa81cd08385702fd684e7bb1cc447617ff51247
netty_9e1e4f79c76f39c8d6efccbf8351e7d13ced8007
netty_a410cb243b875890d96f64db5976a90e9e8295fc
netty_a7a654c82f3eb1374001032a44b08b6b105b4992
netty_a80c49828f8d52b70e68b8a4c80f677ca44af0af
netty_a865090d7a1c503590c4b5726cf9ee56b3cf20aa
netty_abccf184115129e7f4eb79af6c4fab0fc19ec1ea
netty_b86d3d692aa1a5417c2890f3fef78cc2dcfa6577
netty_bb5f9fe078e7d586d04d5858792f10e2fdc20ec3
netty_bb898265b9fc3b0883dd9d4eec90d5c1769a3d90
netty_be1426a22096f6e95d36f389a5ea9b8a38482ebe
netty_bf08ed0b93e54e8e21f23e9d948fd2732dc52171
netty_c32df371abcbee7ebbb77e6bf6a429d3f3f4134b
netty_c55e10c12aa851918dd727f12643d1a0d9ab839d
netty_c6b372f517dc691910552f18db1ada3c3a4127f2
netty_c77f03d886f5785e3a59935fc347c0c4c72bbe37
netty_c7c9e743ce8d08fecccea11372c976e63b2f2955
netty_cdb92c5b0ffff5bea6fd29e6d5711bacc527b93a
netty_d4a16659412af852dd849b0e87b46779d9541fa0
netty_d9085e9e37669624f1e716023cd91e6aeadd3c64
netty_d951140c565a081bf952a44c2fc9585cfc824e51
netty_d9c700e9fed0ea964eeabc46809aeb76425c2a5f
netty_db1e662933707e5be7f0838667dd062e968900e0
netty_dc300f2c812b2231b527c761f4c73d5155137516
netty_dea1fde604ec44f929ca7b645341f9f64ad66d91
netty_e09d2f32fb1c7f2ab8d1e41fdb72e00adb7032ff
netty_e10e9d38c4ec9ed081da916b924b43a6381fb93d
netty_e36c4c77bfbbf18ce8e46fa8efe2a809df891345
netty_edd056d3deb35b7f5b35ec3504ff0ce1e7863203
netty_ee9057ad99b9cc95140ee3e56265f32b6a28d709
netty_f467d695be2ae4ee7d5c2978191e1415aef37a9e
netty_f4f04a08c26092050ff8d0687ebc7f28bee718f4
netty_f73c4f24ee36c671562840e941c914f79566cf97
netty_f76c01c3aac42a90708d3bbc665e5524b6a62778
netty_ffccf71fa53541f657bc48ff471a194a6d9300cb
NineOldAndroids_5e4bd548ddec694c9764e29ad0118f5fd8d0ecd0
NineOldAndroids_fd051dc6afbb01ee5fe430ecacf83e75eaba2ade
okhttp_30b0fd62d297319a8b7d862af4e2d91864de3f6d
okhttp_3820b5c3355a0d5e48691c43481c6201a033a62c
okhttp_5dcc4fb76cb88ab0f17fe9f21dea98d62fa98101
okhttp_6ebe652ffe047767ce3f42aa6dd15b2a6d4a6683
okhttp_8bce6897f9f7e0b16508c462665e4f9d26d92e39
okhttp_ab9e16026c0893bc06d97d068b33a30037853238
okhttp_da568d0604180e2144444c4ee348324f348bde75
openhab_0d0ab352fa9a8ac9cb2dcb543ba1705a4e187eb1
openhab_147f64aa12e7491eea259d886f14818b227dadd0
openhab_198d4ef1420ba1c306b33cd48061c37d79fc8098
openhab_1a5ce48a3e0929cbcd75ee4c3fd531e0b1dd7b91
openhab_1c41d77770d0688e26d068663ca4248dbbafaf46
openhab_2028f391750c568787000a3e6cf9af1b1f2c9cd7
openhab_221d4dab452f59f7fe2c9463db09f0f83c688a0b
openhab_29b0a7bacc06eaafb4022a72fb126591bbe7cdd2
openhab_2a9770fcf1a6c1b3ea759903d0709f6db01c8611
openhab_2f0af3d72dcc86cbf48942edfee000d1056f666c
openhab_3a1be8e56587d0c4665f54f0cc2536cbe0a375f7
openhab_3f514e957d850b1d32ed4c3771e8b89617f0498c
openhab_4830b54a225ecadc65476d0431f71be0d30ad258
openhab_4d0a4731c1d324b15b40d273001839dbada87375
openhab_556b9e45e830a0b78912baf9e1217e92e683306d
openhab_5856c5ac647b07f35276799f8e1dd9c1aa402722
openhab_59fb38e2c78a7c1a79293b1b1bedfbb5247981ee
openhab_5da0ecb4ad1ec841887943e0d40c425149357c7b
openhab_5f5cd45dfa66a816f86995a9540a536c55141ca4
openhab_6a114cf7581642bf99ecfeabd2b13e7375588c26
openhab_6b76d27c535a56fb1060f8e89870a5b6764812c3
openhab_6ff87c4a15a0e7b89bf1cbe2ef738614d0a9df98
openhab_72b86ae3aa6b084fc0cacf3ad86506ac9cf6486b
openhab_755660ed4ae4db1813033c4963cd7446e0020dcd
openhab_7b7249ad2cc3f33406ab319cdf53ad86121fe177
openhab_8038c106a246401ddf7690a004d6daa3ee098299
openhab_925af66f82d43d247eeb427286b7ace4eba4a0af
openhab_93b0ac77e59d936e91684ba016978a315d50d055
openhab_9a55fc5fadf79bfccbb6e8cf7264e52e9f9aacb6
openhab_a2a8ce4c2c548aec39644a79d4d0de1a600726bd
openhab_a2e9823d1c81937fea9a5a72f6ee8c073eeeb100
openhab_a852f0369fbb6aa26e5fd8999be93c3a9fc9a47b
openhab_b343db0e694992c3f6c037bcc5eefae4c10db61f
openhab_b7a9f743db97d9925edf634525a7c8e6a6cc1dd1
openhab_b80eee3df5d73274b2d7f47558c19498685ec06b
openhab_bae26ad317c876853159a7a2af7429c0d9d73455
openhab_bd47220e6d5d84d8425f564d0e72da41ea39face
openhab_c8fdf88faa9c02b28a700a701db6c41d1317a0b3
openhab_ca588103009cd6ffe00ee721ac9bb9832d3a182f
openhab_cfd501f8c1961c9ea8c3521f3e11adff9b5de894
openhab_d3073dc1096ba35fa3ad849f0fb3870475bc9eff
openhab_d33a3d853e6465ec8985d1a1b36b7d64f066c130
openhab_d819e4c0748aad7ed80b002b21b0ad8dad2d54b0
openhab_dfe8d520fbb77ffaa6d907a6db025928240153fb
openhab_e3aaeeea345f38eeb9959d0f0edbbbfa937a25e9
openhab_e4e240f220ca8e019eb36e0d324e04a57c4676d2
openhab_eb624251a251ad1c974caa6e548c04aef9539faf
openhab_ec666401f3cf68fd5c5f5b4009deec12ab6e3f45
openhab_ec6db0e0ab4948c4056a7c13da54f67c26c1ccaf
openhab_ef856da1a07d02a91bc3a02d9b04c604d1f5e1a1
openmrs-core_077e2fe62b1c9eb661028983af6d3405ebd81449
openmrs-core_08e4f656ea0c1c100b1a953323cfc4a4d3627ef3
openmrs-core_09f504b4985d7893731d1f1f5da2272c74801569
openmrs-core_0ab8dd9b65b9bb1fd80a946900b93ce803b0f617
openmrs-core_0f4f1a289434c08f28a846bd5c9a71aa2aabb239
openmrs-core_18a5ebf9f27888a1724c3c7c2096540543b0dd1f
openmrs-core_1c4530a2da0e1bdffa5cb3fd17c80382fb1b4eeb
openmrs-core_1fb1de0cd8008d64284da71f49d56c435f7d153b
openmrs-core_2082d923ff4d3015eefa06e2e383dbe9fa3de2c5
openmrs-core_222b3f8431fa0cacbaa03998109261c30a8e3427
openmrs-core_2663f70f687240ee3d4c4c9d54a769ebff12c9ce
openmrs-core_272fb77a45323f7e49093ace698056fe6b0cfd62
openmrs-core_2d21e297b35059a577f6e111614bbebef3505632
openmrs-core_2dd536e4ea7b27c10f86075f7725d494f15c1f12
openmrs-core_2e3feeb53a4edc1a9f17c4210ae10cd872cfe843
openmrs-core_31011d3232ace5a459ea2ba37f5634f7d4940694
openmrs-core_35e1f837b39652869070a5daa771f30ad049f81a
openmrs-core_393c85bfded1377cdc390c9bafab23d6cd0d9962
openmrs-core_3fa164f11828af219d08c7884eb57d9f936fe520
openmrs-core_4a191da6fa143e6446a6a39e02f71976d438f1db
openmrs-core_4e2b481ca535a5db34807f8cc88c79740f485c49
openmrs-core_4eebdc1b07ab6b049491475b27cc27c1f94206e6
openmrs-core_50020d38a1c9f607600f4a162e563bb9b6103599
openmrs-core_57634b6921a0d40e0cedb8150a7051c9cc466a5a
openmrs-core_58e2311116b2b7eab93c2f26a2ddc823d56e5375
openmrs-core_5924329db91d304964119a1cf1989b5b2c82f85e
openmrs-core_5e12bb4e2c2a79b5af4dd4ab5e3547066e866580
openmrs-core_63dad4b878aa4ee03201ec8669a1ba0edfa5e999
openmrs-core_6698933d601f8a6ec4263e5fb06c99c7e1e68d65
openmrs-core_6c2f07dd67357aaca75a1cf110bffe17c791b0cf
openmrs-core_6c5b1205526a53e2327f802adf31e1f4e340d93f
openmrs-core_788f17bef1ee997c7652cf6c560682d37edc24eb
openmrs-core_8e3096cae54b7a772e6ad94cc45dae6344e92ab7
openmrs-core_a24cc003cb42557584c969fdc8b6cffc65af7072
openmrs-core_a82c5ba127d1472c0c5c9dea4c1d8241bb391733
openmrs-core_aac4c35417568fa828956edff8ab3992e88e82c0
openmrs-core_b72b12e037bdffdf59fafe8623c6d9643cb5a016
openmrs-core_b73af3917eec722c20c0cd75547590158072cbd9
openmrs-core_b9c238fc9e0e5735016102257d68ef21b54cfdff
openmrs-core_cbb4e11b8b8981c22619f7c5a81a0ad5716fdcee
openmrs-core_d14dbb24b052e208abd5a407e3f5fb0df46ba828
openmrs-core_d80d48fcf4b812f5b4d5df3f4cd65e310dbc35a1
openmrs-core_dbf099e38ac11b6a5e31791f5ccbbb2511fabbf8
openmrs-core_e22b5521a7a0f4c76a10f8a8c7b50d931ec3eda5
openmrs-core_face989dd7a6641888bdec68b8b458b937e8d1e1
openmrs-core_fc800516d84b2d162de8dc00a51fe36e56de30ec
openmrs-core_fcb5ce0b9315919cf5c7d717cf44377bb8873396
pinpoint_0283c451f04f498fc7c7f359ef020d6da46d2a0f
pinpoint_159190a6d6e5b4c27a78d2dd2f4659b6fd7df20a
pinpoint_2cc7a9186af5b7cb9c7f6cccc33fd20e46ba9e16
pinpoint_30315bc85fc46b6fa08ededecdf1b9ebc781c7d1
pinpoint_41ff1f19d2188256f4c38928e7a5dd837c5d2edd
pinpoint_4722aaccb36ee62a606a4639a9a670e872ad85f5
pinpoint_48f7cc27d2a7f3f87ddd7642774e3d0c5be68de9
pinpoint_577ee3f0147ed3d8077a734bddd3a4016546a346
pinpoint_c0a9995fc0dea4243b05a627c8f56d771479ab3f
pinpoint_d841140c230d298f1e3de1eb04307f65e3ce7935
pinpoint_e386e1741968f03086a65d1474dfbaf712b67d2a
pinpoint_ed0f4cc76b722fb5470d2fa0cbcbae9597385b8d
presto_01958335b94eb8813a090a53768e751e4f8f7366
presto_0673ae2adcc189937b5d30a361202d2e80ad9e0e
presto_0ccf7393cbbb04a42ae4cce19588110fe11c2b7d
presto_10c93df27435ffbc037cde5e6063c9dbc6c0eb3f
presto_165540532a351f8c2c249f0aad2b1827441aa46e
presto_194a3d4413de06e4f57f2c2bdb001fcd1fd4385b
presto_1b93a2f8d9a40a28615c3acc0c6415d678e26466
presto_1f71382322dbdca408184f5ec1d65bfc32e7b8f2
presto_28db1cc9efa95eb3db21a27872101e24f849ed34
presto_2ba203f659a7690bedf91a48e8d33e77a829a63f
presto_3079a06d9695ca88467c96c40c5608afef87fa5d
presto_33a6240a0aec273c7f48035b6dc814ddd35707e3
presto_3847d03a4ac7e7f4e52bca451ddb5089a7402072
presto_3cc42e2082ef0103890fca974d5f736a4e665074
presto_465a7e0c87af4a986b3e95baca26ed3a57a0e291
presto_4a1fe28154e697fe94e5d611cf0586032bc95d63
presto_4cb4d192f1cc8e0da404521946d7566738d45c00
presto_4f637ff4fc3bf547e29cd2c6d5e3658642644579
presto_4f6aa5813bb02b22ec197af3f4b9cb3bb24964c7
presto_522d0562405e990608c07dc848392dcd49e11a70
presto_5266fb18f1b3915144b72d8ba25d49004fa18cb0
presto_58283b2a77b7d1dc7468ad6b3e269a7aa0ee88cd
presto_59b43a1c27b76423c1fc86bca61df19b1e116282
presto_6666af6ab02f1200875ed2ef7364ef8b131eec15
presto_678913db7377dc67b3cbe92f6c9c9e401b777d97
presto_69a525ba4f8477aa55ba8e45e62df76877c74c62
presto_6da0262762d438ef781a6da3956fdb7fa8f1d5b2
presto_6dfb1ab598a220277196cd13d1412565c4a7c1ed
presto_7b3edd120857915295b680e6b6be3b107d01ab89
presto_7c5b3b80640eaa9dbb34ff0f78afd2fd306f9244
presto_80ca2800f5bb9e41e5aefa7766d91e6695a89020
presto_8abad921ad3dab058386a72bb9b66842f321751d
presto_8e42a6e155a8f92aed5780d1ff4f0225aa178875
presto_90b249401ac7b713f46d464c9645b98ed4dbad22
presto_95cbe760e15985289b0cd901b91b0aa8f66cfac2
presto_a6c1902d71e8f373b174be8d684e73ed43c0ad0b
presto_aa89f69519cbc34e0203faf377f557559174aceb
presto_ab31e66e53f6e2f007e234bba4f33ebe7291e5fa
presto_ab46f2477a01e3d3e3dfcc10e249ae1349d72991
presto_ae376bd69f5d5ee6d0461abd00b7870d8e26960b
presto_b1078ebd0e8f1155ff4b698fe239cfb6ea98dbbc
presto_b30c9ba15edd3060a51d6e46a735cdbd838ada7f
presto_b4cef872f8429ea78bc13f1ac2b3fa5eb3723d3a
presto_bbe1b9a42da423745adb29c29c687e2545bb4202
presto_bfffe6afb376df07702965da9106062f5fa47e22
presto_c38ee7371ffee08671b886ff9eb74a4cb35b92e7
presto_c4c48e72c78065000c55e71bf3df9190ddb8bc09
presto_c5904292317523fd460850b10d32c7a21084fc68
presto_cf29e3835a36189c3cf735e95e53c0f348d2c7b9
presto_d128304bceaef2df9d8c527979010d56e6425bb4
presto_d1caa1b9e738840bc177f14a37bb4fced579d977
presto_d4c4ad37c298b038dcf9fa2a84a8bdb9c3c6140a
presto_d698605b1d34403744aa6156e2963e6b5be58de0
presto_d87a80e28672d65e06569d3df8235f8e8569cbb6
presto_dad70872c09aa162f4567263f677a49b0455be76
presto_dcc24b58f7a426eed6d81d0c9f85367e12810efa
presto_e3b94b6ab4c29b8dddb99ce9fd2efa36e097d455
presto_e3f5bfb1c2a28977879a3c66e240960cb93dd4d7
presto_e4d57393934db18a4b8161de6a27edc57d51e4ce
presto_e7a5ab4073d673afe757f2cb55af27c95b99aa54
presto_e9f858336e2ca5427369e024618dcbf952507cc5
presto_ec7ddf1be8f60f24cd82b18f6fff6e75e82462ba
presto_fb42d06269d83757087918c234a9fff70ed7ea3f
presto_fd7eb40daf07023ec3c5fce128fc86bad5a47c55
retrofit_3ce5556c31e627cc5e47fddf0a639f9e1fa32a3b
retrofit_a63faf44e1b103a49d25a15c720fc5940ae9fc07
retrofit_aa2e0a36d1bf926dade3a92cdca38f6d6ee834b3
roboguice_1b814e4a95602810a01679d486caaf514474e8d1
roboguice_3d3fa1f37985a5389ac02024bed1505eeca713ca
roboguice_4024b63c37abb6e710f6fa1eb2557faf03003e63
roboguice_45cbae27786780ca4d6d57986b46bf2f54dae128
roboguice_b761c5bcc255d7c08d81e4c60ed5989b60504b8d
scribejava_874e959e0940032af2b854bc32e6fcf7e86f8bd5
scribejava_cee1ed39f39cb5fd403db3986d2412d6cab7da0c
SlidingMenu_86264991bf755f78c90d473fac57b1bc26d824cf
spring-boot_03beed603c34a396476e61622dc0dbe01c71152e
spring-boot_0408eb413ffe77c6b65debacc2622ef42ec3a5a7
spring-boot_0ff511d978c273a8eae317ecf9f4f1b98e2efb07
spring-boot_11aa4d074970a5486181b0551abca1870ddeac4c
spring-boot_1745a5ee6f81fba376110785ddd8546318bee689
spring-boot_17bcd1c3598c5eb22f705e5c523a3deb66f54ea2
spring-boot_1d5647b92215f0ceabced59275225ad829061663
spring-boot_1e3bae9ba27a215654cfe28b81bfa933458168c1
spring-boot_1e4c972c3de632303324578d670425de37c1e27a
spring-boot_28c1bc99861813b9a8694c3921da3569734e45c5
spring-boot_3076a5523ab2c1be078a2acef416fd3a7cb04009
spring-boot_3174f898c6f3256427d08907ed4b8a1ad6513df1
spring-boot_35dc7982d28800b4fecdf0772236a2d8e054aa77
spring-boot_430fb51ca452105ebd02d11bdf7376c70a96999f
spring-boot_49a5587558d8183f5a054156f59a8bd5bacc9c67
spring-boot_508905884a2a4781c5a370c75cba284429d2dd6e
spring-boot_5250fb127a131b5970ac0f9da6bee972184691b2
spring-boot_57a4cb1aeef2b6106549c5374f52725c3a4530d3
spring-boot_5fd947027eca1c8379837f53ac9899fd9666dda4
spring-boot_6121d105fc56c57636b98ecc7504caff978bcd14
spring-boot_680741fdc81d7965963deb17d37a29501d705685
spring-boot_6ec3648a10965a2c74c9a595a4c7962aadb7e288
spring-boot_727dd12852290f48840a8aeac91c37823112bdc7
spring-boot_7298b2dc1bf774e828f4a4fdcfed1538a6375a3d
spring-boot_7e49a023566791f32f3b2c4898a0d2e562fd5afa
spring-boot_87b554d0620d5607b8ef0adcd3931c00a61588d0
spring-boot_8c24988faaaed2d46433ab097eae29c105d6a16f
spring-boot_8d08e816a79a7390dc6ba086d5709f1049b5807f
spring-boot_9c3af103e09bdcb4addeab973881eb27bc91722d
spring-boot_9de2d1f83961a6ede9fa5bdf249c41253116374c
spring-boot_a2ebba8db1b00ed2b237d77d908e1cff9f41db0f
spring-boot_b3203058be9aba7abbbfa8091413a75603b270bc
spring-boot_b7e9f805c94e67b56d9c3a9cc201c19dc2e759f9
spring-boot_c68902260ebcdcdcfddc3b95f5a263405c17846b
spring-boot_d64a44547c2b2b69c771b16d9ac4e1ef5f8d8ce1
spring-boot_d720645275e1ecf44840e543f1245811a764674c
spring-boot_da8362a2da7950fb84cba182a17a41e3b5152668
spring-boot_df2d6b370eaa8d29822b928b0f307cb6918dfe4f
spring-boot_f4d9e1c650ee6988bcd1807aaf02b74e3779358b
spring-boot_f8d58022301347c8a9790013e38dfc1d5d4037e7
spring-boot_f9caade3cc3b25e35c12e7ebb1766bd9c9c369d1
spring-security-oauth_b847c8f134aa71f74efe3098fff6d4c095d63c3c
springside4_c251b81faf25740e6afe5ac1f5f8d40f6b7022e3
springside4_eb4fd212d3307ddbab60a5acccef6473dfa0490f
storm_1274b076e0f5efb4d4114ecf61d985b2000b2d46
storm_1e30adc5ff63f184226e8dfaf6002cbb87208377
storm_203c48445f33b9bcbdbc377f3e6311babca100fd
storm_3f295965dd0ea0e6d20ed7ecd001590d574af06b
storm_498da9e77cec4d5cb9dfbb1044cb9634f1ff0422
storm_7340590ceb9549eb3fe8bc443ba9576260d337cc
storm_754ce8b22266079179c9f1275c11fd8364c1b510
storm_77b171107ba52daac34ebf3d8c59d7643ecb6408
storm_7cf7647e546201d3f175860526888cd92b3927b3
storm_7fd0575aa305d00a88065a39d470dcfab28e245d
storm_806de3c1720719b0c430da85ea2cffceb1661236
storm_8df4ce27c1c689bd1e0d1e771b2506f2e05dbefc
storm_8ea2679d47dd14443f44944fed98b9e7b6c6c516
storm_93b1b656013a941b03c51936ea2c95cd7952fbc5
storm_94de2a5932e4a68a53f15428927b72b8c1ee8563
storm_bd963bca14d8ecd4c2eded3c6354045ebf73d505
storm_d1157e6ac0ae5b2be1ee26713265eae204f4ac23
storm_f6d464f2a02cf838e1758812239432d562683bed
swagger-codegen_07ff6a227899bbfcae91b945f38a83756b9efff6
swagger-codegen_156055fdd504a3a5e5b2c0e1e03bd4c22f2a8749
swagger-codegen_1bb9207c9bf3079bf64050aadd21ab4735511db3
swagger-codegen_3465f2918e491ade0e295c9d544263f3aa0b8706
swagger-codegen_460e5befec4e5f821e6f0808b5fc166844f578c9
swagger-codegen_4bb6d8993ca8fd33e760347edc9134e99c05e0a1
swagger-codegen_6c922fdae1b08d7dcf2fac9f7b4dd1452a5e1fd4
swagger-codegen_6da7cbf09582a8c284fbf53db7e1b3b0e1e63d2d
swagger-codegen_af4319015e0c1ab6da03083d793e465b7ca58def
swagger-codegen_b70a0bf0c62543baf131400180d79f826b61ebc0
swagger-codegen_bf50ea13662770de9f2a6546fa2cd40e83ba1aee
swagger-codegen_bfb8cdce2efa95338737fc8ba515dc8b2d96fb64
swagger-codegen_c7f595fc915025236dad228bff9c4fdc3138c993
swagger-codegen_cc848a1c24959c2f6941234b77399fbd58ecd3ca
swagger-codegen_d5d1eb2833c77f8f91be583a259077df857a9b79
swagger-codegen_dcad1658716134bfd9afa350334ce11fed4c0af3
swagger-codegen_dd883e4125c23f6bfd1a54aadc9c07e0fcf2bef2
swagger-codegen_e864994b62d826d99a2014c80e1128113936168f
swagger-codegen_f27eb7e0de226f6d6e91a9ff187b2ab68b70cf44
swagger-codegen_f472b623f05f7e3f570a2085d86a6c4579afe84c
swagger-core_0bdd8d4cae5dbc17b9a830d31e467d9b413cf7a9
swagger-core_164db8e5245d1da97ccb99b2f093834703486ef9
swagger-core_183a6fccd65bc0cd6de129aa2c7b35b13bfd2797
swagger-core_41d67a3d7b3c2cc86be1792d79083f0d56981d2f
swagger-core_5d0b8859958deec227263c8b8c2c30b5f1462424
swagger-core_6b61905020b584c7e2e7bd5b0b059c166cfb05b2
swagger-core_8569c8f254ff50c528ec82bed60a71053d2645b9
swagger-core_932f0e1e9ca086c3143ae815b8e86dd40dbdf642
swagger-core_a5b255e0c64d569ebd394021bb79a1099d3e4973
swagger-core_bc6815fa67ef06bd49f0845c45f41532c93ebfe8
swagger-core_e60bf859c6a59756a67a5d0f2ab2fe5c0851f425
swagger-core_efd00f07de1672cfed0d7751b942b136ff82cd1e
swagger-core_f96aeff677f2874dfbab1578decfed57438b4361
titan_27371b98cac421c0a3cbab7ff771e99a3b73c7b4
titan_a9609b959492ff428061f06faff767fa9cbe2263
titan_c7cee3c559bb91d3424213716d50e9bdf645c857
titan_e9c4a734ff5160673024538f5b3ef1339c5424e7
twitter4j_0ab8f5be33b4c17e048ece25add4d7a296573f14
twitter4j_346d9c70d2ba20dc1a81f95ab903c6aef660e123
twitter4j_34ce14525b96f8b48cf5cce1356f34d1bf902ed0
twitter4j_3ff50741ae92e513825b787591ba82e4ee00026e
twitter4j_40df84d16df6f97c250dd9768f5b9826f29d9e63
twitter4j_845d0b065c3d9ec57d597a2bd1ae42b4366912c9
twitter4j_be4d2df2b76f02b1f0fd5c406d80ddc3b8500af2
twitter4j_d44b0b0134f76e2b180874cb58b5fc991b7453e7
webmagic_29c6a03f6019265fe40bc63b935a9a6a5c006f05
webmagic_901d6fde1d2a851eadb13eb323012860a411ec72
webmagic_9338e13c38d7b70e1a919c650ebea63f6f42beff
webmagic_b249e49748bfb64c122d7a8f1c77c135f2065e87
webmagic_b879b0eed088b3cc42d7346f06f85f048442eb2c
webmagic_d7abbd0e4bf5a922b3abc3e75ebed7328df124e9
wildfly_00fd4ad499a5f2461226dd9696fdad0a5ddda398
wildfly_02deb76287b54168e7b035409604e65159c06d11
wildfly_05f489cb28a606400060ba5e26ab13ec9f4845e6
wildfly_0dbcd0f3bc0441dcd2a52d1fff38d8aba6a088cc
wildfly_0ffe574925f8ef6918802c4568ff406a7b4e2126
wildfly_13a495febc640a079948320b20e44db36fb51dff
wildfly_19dac46f389eff0af027d9d11176db6eec0cdbc3
wildfly_1edcd8e7a5019347da9dbff76df6ab572a1be49d
wildfly_21b82720cd4e26c123fce20ac7560c60160707a3
wildfly_224017cdc8ee4076845c59f9ebe8de5aca6fd2ae
wildfly_2296150cacd0bc1b8dec9539144ce00169d26bb6
wildfly_250487e835b390d164789fcb58ba946e3c77ef22
wildfly_2810d541d48a342900ac014154e0cd13e13b4b78
wildfly_2a124aa4658b987b69b3c6ecb71996196b547bbf
wildfly_2b6da52d6e3e42f393964a685c6ce1cf35f9918e
wildfly_2b72627776ff650f7c929bad858c63b421d65e51
wildfly_2eaf4d1e91805159be96f6f02104536222b27239
wildfly_302da773c9230dbbb31c2ab0856f0fefdc8b54fc
wildfly_328679ccf72b8c83ded883cd110a719a130a2237
wildfly_37dd809a837712952cd32776d4b81243c9fb3b59
wildfly_382770e5db0be4361dd2a0dba6f955ca7ec64a4e
wildfly_3a564d67f9c0fa529d7c930a0109cff96d882fb8
wildfly_3cb720a79c01f20273744799990bfcee1afe73d4
wildfly_3f3307d24f2113448a2ca97e808180c1a1bb35f4
wildfly_3f7526557125c328b9b5837eb48bf4bf87a3fc72
wildfly_4156ed69f5a554a2a0f6ae1fe0e411db1e7ab8d3
wildfly_4310aa87ecca59bfef4cb9fd0a664d328c061269
wildfly_465d2a659d53be8105efd628b65a1078627b5fb9
wildfly_504404dd9eac3e724287d3055edc9bc28494911a
wildfly_52b686c3d894e67cfd306814e493bb46c0c5b0af
wildfly_5c1a470af68205e2ef6914ac2892bb84c6f23ea6
wildfly_5e911029a964c7c14df57a6b03c7b0e370c609b8
wildfly_622ba66a8e1cb438393e4a0b86b4dd44c0283e3f
wildfly_64e64556748cf2326482370f51b9e9ef26304302
wildfly_65abbcb6ca47abb54a1bae09a8cbc4415954ebbe
wildfly_732ad17a05a1ba8008952e7607f9dae1aca5eacc
wildfly_73abc5dfdcccfbbfd0496ace98bb3b5bca469dfe
wildfly_77668101699331c4827d683b0dc2f1a960936c15
wildfly_788da526005e78b751bd0345e75126e1b0438164
wildfly_7cd6d9fda7cae808685f7664b6655eab3cd27522
wildfly_80247ada8e7daa46660c732c4fc927e26f055d76
wildfly_81cd73093a906862fae4f044b35c9807d2987682
wildfly_864e94025e41983acd7179a10be45ad638b71cf2
wildfly_874ea174c8cd6f74cf08615a8427dac418958921
wildfly_8b22663471292a0094c56876160f3266b259e696
wildfly_8b34bc1f1bcd6b4ac18aae311a0108a89ab33c44
wildfly_8dad775af94f89faba78ef282c475cf9da02147a
wildfly_8e08934ff42e1ada53a48f6d9c1a3c756c9f6781
wildfly_9048c65bde04c48da2b1f7841d51f4d73c5336f1
wildfly_9567b4c6672e29c8552a73da217d599357209ecb
wildfly_9576ff9d7a9840714a65487e3cf504a9c8e41688
wildfly_9a2745bf5d2bf3d0f666ccdd4dde46490fcf1583
wildfly_9e8b3b8cc19f8b4e5f96ec2d51f1242b7be26bfb
wildfly_a035959767074c70b0946e55fa61fb79c4be3bb8
wildfly_a2191b73865370f36c7c3eb870adcc44db99d1e5
wildfly_a23c05e8f4518312ba67269d567c6b6dc2a6cfb0
wildfly_aaa8c6e4c9ae0d5b4bc8adb573e85dea12afc59e
wildfly_ac0abe4430d9744c9590f8ac39614dcdac5fe39b
wildfly_ac52111777a7d23d0f6528afa3677825272e5bfd
wildfly_b072d99fb7de5670d757abb4c85cc439abc9e263
wildfly_b1d7a5d0c93d10cc954efd288406326c15431545
wildfly_b615640bd31e6a69102f1bb9c3649564669baab0
wildfly_b7c938af78d2414c72fbafed55816b176355036e
wildfly_b8aa3aa13501be03d652b83ff1e4863ae6dcf5ed
wildfly_b9c0d31c3c2d6d6e91791308db92fd6a1cb5db43
wildfly_ba6e9ec5af0be6ef5da055c18c0723329a81aa25
wildfly_baf5ae0a810f942b3d23f81a2cb03773f5ca231c
wildfly_bf9f77a5b962ef0ddf77929f7f1a354f7cdff7a6
wildfly_cd3ac4311288c854d5bf0e661097c7262cf84ce3
wildfly_cebaf47ed83404e0accf09b0faa44b27da289e86
wildfly_cf1f40dbd6fbfd24264b759243227b90f54750ba
wildfly_d4a1a1cdac176e1f13c04cbbee22b690c8c7b5fe
wildfly_e4c831dfe87668dd3a1c308ae43378e015e416b4
wildfly_e5f5decf8c607db5ce59b007200ce17c71f414f9
wildfly_e981384cc21ca3c1958acd4b494a6ddd147c0a60
wildfly_e989783a33699f842a064c119b947df61f63bb79
wildfly_ea7f239028a04aca3f92e30b0adefd9e81e31361
wildfly_ebcd6ae1a64d94fe5e4ce3d72eab588c48a2518d
wildfly_ed6b93c315cebbf53ffecd330f0835a791dad92c
wildfly_f08db599028efb40590226e5feda39dc5e410a9e
wildfly_f408cdd9b3a169c323e90bca58b349f256dbe82d
wildfly_f4f99fef8e0f4e67e4c216c7d911030d78ee2e8c
wildfly_f5aa25fb373b727f587dea9612c30a9b2c150737
wildfly_fb707d86ec1fec06b2c43fd4fd7df38aea776053
wildfly_ff8365f5f88d35c25c9d025d03ee4e291a473d8f
x_2b49c3601734e6e5c17e1c797b29015c4ddeee4a
x_3b6eafd68cfd7e7981e24e0504c700a81cc797d8
x_4c66566e398558597a5058384d85a020b2418dab
x_600204395d741d71edf6ed059ec1050a091fa7e9
x_685cb6543333bd3bed23d849fa95e1bce6b4e154
x_8af315890e4f8641c940f7b31cc6ed7b807990ed
x_a78b4a849de52c109940c50699cf1dad17368a33
x_cf3bd829bd65d6a0c838800f9f71688b133d0bac
x_e35ea60816cf6b98aa2e09a1e1fff8390eb63ed3
x_f24f07f3cd5f7a1b9fe0ed4606208dbf2cf0f817
x_fa64e9f73366657c94be3993980f9bf54a89a36a
x_fc8a0eaed418844f88b6b257fbc872aff3a3ee74
YCSB_04bbc38c496f77271d87cc23f9784be827744481
YCSB_0dbc831424c6a62d46e55bfd944614cb4ebc2d20
YCSB_6bed442c0b97ff92de4971368028d0bfd7edbb59
YCSB_736f2f1c69f538fffcab5e4b36ecc40de3b270b6
YCSB_81ba93cc66964780369978ba110049f3782fa9aa
YCSB_9a8e37a40016be51c6f977050adce8cdf6b50998
YCSB_e6bd7393faa68dd73e73258ff75820b558bfd356
ActionBarSherlock_7d7049f9007a940fc7a20f28b706c1144c59223c
alluxio_0ea48a75db6718c8e6a953495c20971ede930537
alluxio_2f6e41f5a832e0831deea9a1d83537f5c347836e
alluxio_42ac2cd8be79d12d0cccf164ef9876a7770fdc70
alluxio_5303dec13d7b0336f282e02dce4d169c7acc6fcf
alluxio_7c5bf68537c5adf988751ce2cfa9f5b895270c18
alluxio_934aa7b9e2abc352bfa04138a49fbf7154ac2ca6
alluxio_ad8ad9f32f532c21e865d445f0d5536bf87e7b8b
alluxio_c6f6f5967fae898bb2fef98b1cfd8d588c9048f3
alluxio_dc715067ad4f0f92b6580d47cd7a08a13d496a00
alluxio_f57df98acfaf5b94fd15bbe786fd846c67712b15
antlr4_072f57871a029f5184644994832261035e3136e2
async-http-client_a4f00a057f9f71c496c26a87ca45cb2166f2bbdc
atmosphere_edeb426c8cf10f9934bbb66debbbd384703d5801
camel_61570e64490bdaadddcac3197c93ff38a09febb4
camel_8e9eab858bb83a2f44c6124974cf6a9e481c1dda
camel_c9a562e467fe68c98830eefbb41884ebdd71e309
camel_cc158b2acd4a8490408549c3add1f42881489312
camel_dfdec00456bd035f37996a190dd9b97a6ed5af0f
camel_f20b7f01e498c2f2f0e17a86e238f68a9e9460e4
canal_47ac10ca185ef128ccdd055cb83fea5def7428c3
checkstyle_22779281e6cd251dedda23c69b83b6509701ca31
checkstyle_4f5a400f1287161c958720eea79143466191833d
checkstyle_cea7f4acbe4f286cbb031efa816f9e881278fdc3
hazelcast_d0d65aa1c8bf54b797318ab87e83b64159181d35
hazelcast_d22af9afdcff0a974105cab3f3fd5a85125ce171
hazelcast_e6329ebed39492e0ffeb243b0430bcc07ece81a0
hazelcast_ee2feaf9a6c87f753e3e4e6be46752d21494bda3
hbase_4c98f97c318995593bbe8b67ba856003cb5ed463
hbase_930eb4975915906bb8e88c4376ad40954f67c806
hive_8bbd614034d1949d4f0f787d56c510848eaaa787
java-design-patterns_833b5883d42697f9b63c4be74051c977a7480526
jedis_03c0af2581386394637d83713efe6bfa8ab6e446
jedis_ab38239356754467d627a7687fa0cfad2a28fbe8
jedis_d7cd3a0af671b0fcf30b7cd4819fa9026f8d92f8
libgdx_04a010c8499fbc96b1e5a99bdbebaf0b38d24586
libgdx_113b5134f1f45534d880789be1cd787082ca3694
libgdx_4ee94d92c7f15dd7f5a2567e5d21d759400c24b3
libgdx_586c8eda959300c12504bda3c404b117dace13bd
libgdx_ba91960ef4f56fe20a68f04375b023486e79a416
libgdx_ecc84d22052f8489477bd263eeaa361c0d14f7f5
libgdx_fa187b882171fc0c6cf049a85bcaae26d2261328
neo4j_7db2869ff594f72df9727513287a0a018d7b9f9d
netty_219647385ab87ee13107a9f4e571964f5527ebf5
netty_35ac9ef38e0ebf8c9abb718e66d0206a1c943260
netty_47985c11c1d9f11b94018539108ed65f0c6a32ab
netty_4a0d68c50bc8ef11d94538567ce3c8f7deb5d4ab
netty_6c5c119f8cb1c5795b43ab73ccc54ad7ad5b37a3
Activiti_9b649ac6da4293d736676de895a67aaf87fc5979
closure-compiler_5782007c46e67cd4264aa05298cf72988dbd3537
closure-compiler_cb7d625f0a9ee93743e8f3afd15d466e5fc8f286
CoreNLP_fddee1afbed00ca766a88798f968d42a7411a34a
dex2jar_30939851e7dc6de88c7bff192738f070c33a9c43
dubbo_b309f792f8b5ebfea16b4cc13720e35306d94b38
fastjson_59d72e6e1398cf7176865d33adcdee526bf490db
fastjson_65a642dfb31a3f9ca3bbf0e4705a4e8ea912de54
flink_1682d9037d8e9f49bbccdfe682553203abfea665
flink_594c6ff5541529755a3bef8ca9530d0ac3d5b690
flink_641e4509dfb5e9aa7576f8225f37ed035a15894a
flink_a448fc53877d025130f05b8738d8104c66139fbb
gephi_a3422173e0e6eb6f53bdde5ff73cee047285a59c
gephi_b17609137ae508249571c3480f9d00c8b7dcc199
guava_556976f81c236be7798e5d065a0dae09ca0cc1d3
guava_86fb7001aecb8954dd15ee3c64e7172b4a6e512a
hazelcast_0c76b564cffde70b893bc9135c0acc03fcbe69ee
hazelcast_10aa6c4006fbe06a06d8d7616bf7d052eb8d49af
hazelcast_22735f4e1c7de3c10301d5c8d5ae37980fd5bd5e
hazelcast_29a532c691292b57576df51654cf1b9c65bea0be
hazelcast_5b296167dee65b2fee152c72edecacc609996015
hazelcast_9395821fc9da62820bf2786b62d2a75c3d6fe236
hazelcast_b56f19ce0b5f70196abe2313e97b0a70f76b31ad
hazelcast_cb69ad55ae896c06a493a334c67c2a2b0451a444
netty_d8cd49c1b725a5e0a9355a25d6fa7ce887774138
netty_e1a53e61d02d195c952b2eb723c3275eb5989827
openhab_ab9be0fd8eafec78ecec4f228ff1101658ea6d49
openhab_acc9d3961e1d0d8ebf12269a08566222ec382cf2
openhab_b0500e90373a5e606758f857329d576a4a1a3265
openhab_d5db9f7ce7f4b2c3bfeed3e421213d03b19a8fdd
openhab_f8946ee2b640061a35a4c16bf2588242f27053d7
openmrs-core_49736ff78d46cf4aae5a621f887c09b18d10ddf6
pinpoint_6bcc304e29dc9bd1052eecb504711182ed78d39a
presto_4b24d638acb9815062c1f001bfd2655d5d79e4fd
presto_5c33017484d6a60c90b17be11fd2e0cfdd9e43a9
presto_83a71882f9aaea06c482d5efb4fbaa5c3c39b079
presto_be5b0f7e64505c139b0609d4c3b3fbacacb6278b
presto_c3298a9ee990eeeeabadb36b035433338e878ecf
spring-boot_180815445c5271dbee42d1983e7724d95b2b38a6
spring-boot_53fd1f7f2e34c70008553640fdf2123e41a02592
spring-boot_d10dd137149cea58a3b085abe116a1ca2cb69b67
storm_03e6b841960d7061de6a7dbd01e24dc535594819
storm_2c924e532af4583131b4012a5349cadb3bb39626
titan_52cc81327a150d9aaee1df165fa53aba1e8a59e4
twitter4j_2fbef41e3fcea14dcfc1bdaa0e6e103e246c3f90
wildfly_482a1d000adc7a304139d6b93f6690ed61ea0902
wildfly_7e894043c7c2cb8631d3d1752286eed8f9484010
wildfly_ea7fb1862789fea49f52407e31316885612d1d41
YCSB_24690edd29ec6049f2456b3ec463d8d1ae0b1663
