Activiti_0e5fb3b2a49dc21509c63d70d2a6120830c4d51a
Activiti_9b649ac6da4293d736676de895a67aaf87fc5979
alluxio_369bb6fcd21941dab976dd6b972182b84ba32183
alluxio_4943b845e40f8943ab906f057502cfe49902d045
alluxio_57f8d26bc2aad0a91ab8a85be7e192ef469489f9
alluxio_bb4b51a7b7be69d79d44680f3931120b25907598
async-http-client_ad9d355760141bb98219c85d1df3ac611398f59b
atmosphere_6e89189bd44abc31df9015ae823492373ec3ea46
atmosphere_961badc1a831a32b5b7aaa522531a5f7b346c54e
atmosphere_9a846bb164140f14f649f29becc71919bbbd3ca4
atmosphere_9d03aa12ca86e57beae80727a51ccae932081dc8
Bukkit_cbd5e3bfe5f09d83892807487aea507df223d5fb
camel_c047e252cc73596c519e538bd6de13c24350d09b
camel_e7edf94e66d63ec5fe1436dd9260b28810e9a805
checkstyle_6e1b3fadeddf5219a74285b898fde47e34a81e4d
checkstyle_987da3a4c5fac3476a4461892c919c0f6d9248bd
closure-compiler_11b2dc6cb756eab64037bb27188e0c1eac3b01e0
closure-compiler_8699e073d692da7f81f0fe7f973784f2e3e54995
CoreNLP_1235e8c2c4a53348c725c256a153a1cf6e5b8088
dubbo_d80a42cc69d16d3cb3391ba9f5ec2cc64436839f
flink_642ff291920b7eec294a37785f2fd0437c8c56a1
flink_a33c7226df1ebd6d0deab62bead9438d9a1ff2ac
gephi_c9e0838e7d5852ede0d58e3d69e70d7c337f78da
graylog2-server_bf8a88d3edd4aed38360d6fb04941c3a826d5c3b
guava_313f93c8c4ec073158317473dfbfb2aff29b1d65
hazelcast_1c062ed52ae61ec3ab22b01fb7b9e2e15d2440d0
hazelcast_7af4bae1424f5834e01682de8b5e152427db4217
hazelcast_dba2faf4ec3ff3e3266ead95b962a0940b33ff55
hbase_b99382cd1addb11824465a0aa67550b62a95216a
hive_45faab2f4c6252971d7145e46aa336784e28d602
hive_de1fe68b90ff9e29a21095035c7ed02dbbf35f26
libgdx_0ef571a65fc3e299a1c94cf24a1233a6fbd0a0d1
libgdx_b041bcdeb2b96589efd6e6058fb0ba9dc630e949
libgdx_d3cf1e5dbb63ee6e35ef5d76e9f74ee06a83681c
libgdx_ecc84d22052f8489477bd263eeaa361c0d14f7f5
libgdx_f4dec2bf664edeb4a27d91b7070c01714b101970
metrics_34aa92dca9aee7ee6e0ba551e69639f853df15d3
mybatis-3_2cd3b6687d9f6a87e97bb5ad8c6f7fad84617a4a
mybatis-3_8e01c1c07300c0fe2ecc76003ea7a01d5d5f47a3
mybatis-3_9ffeb75057d541530b7ff410cfe220df26c893be
neo4j_5116cd0238a9974610e7784e65e4acaf0e5a4b35
netty_666f57a35e04790d33e72978105d4c7488e4db18
netty_7b511d8200aae05bef86085f9b101d37b9fce4ef
openmrs-core_788f17bef1ee997c7652cf6c560682d37edc24eb
spring-boot_1e4c972c3de632303324578d670425de37c1e27a
spring-boot_53fd1f7f2e34c70008553640fdf2123e41a02592
spring-boot_df2d6b370eaa8d29822b928b0f307cb6918dfe4f
storm_3f295965dd0ea0e6d20ed7ecd001590d574af06b
storm_498da9e77cec4d5cb9dfbb1044cb9634f1ff0422
storm_77b171107ba52daac34ebf3d8c59d7643ecb6408
wildfly_5e911029a964c7c14df57a6b03c7b0e370c609b8
wildfly_65abbcb6ca47abb54a1bae09a8cbc4415954ebbe
wildfly_b5fd7c00a9da43067409219c59c749104b92aa29
wildfly_ea7fb1862789fea49f52407e31316885612d1d41
Activiti_0508ea55c3155def05a464f8fbe4fe6a02da54ae
Activiti_60ef304601539a6ed91ba9ae88c31114d4b098a6
alluxio_0c8317f37c51998a2662158b5e1347864902524c
alluxio_3a75e0ddf165fb153cc741b1a1f4b409443f33e4
alluxio_a42fcd4484ea4efe0c6b9500aaa3671f0039757e
alluxio_ebe38aec141cc8fcfd56b71bf167d6370808806a
atmosphere_144599323abb2666d2226773d46a2cc26faa83ec
Bukkit_18c46487add2b1c32060bb9c1fc8e6e36a3d44b0
Bukkit_423974f236d8b61665f231c99cc492fb452dbf04
camel_57b24a43424e5389b337b76289bb2f1c68ea0072
camel_8a4f25a6dcaae2b704bce5794e007131236cb0d7
camel_922a99f714ea5407f34cd0423d3787f5c499cd63
camel_926009a3e1a45a35ffec8144fcff565d7af42fe1
camel_d717709557fffa9bbb9d9e1f682f18f8623f16f9
CoreNLP_0d9d1d757808f4b956d59d1fe5a372e10680b7bb
CoreNLP_6b2e5af7e0653ef5443fb7dff9795b450248e09f
CoreNLP_e608cc292c0100c32f7659e10fb1341d68428fc9
druid_7ce110d5b6334d4e13fca74bae58f0522afc9fed
fastjson_5d871d8d49e62c2a308aa8b0eefbb09133fd72b1
flink_4fffd60769bf1fa8501b4f371ba0117bddaec11f
flink_96b353d98f6b6d441ebedf69ec12cfa333a1d7c9
gephi_262f36ae8088206c992628ce7ba1d60e5527b31d
graylog2-server_27bbefef14dfcbaf9048bb9fc92e991bbc4a36fe
graylog2-server_31a360700bc11b55dc64e89c7b6f8b660b50bddb
graylog2-server_d07651434e72e231669685fd57df7549ea988982
guice_1e5fc1daab8364f1d16614e9013135a115e66e2c
hazelcast_1cb5e189b07a4808608b4c968273798035be5989
hazelcast_3f0fb5b3ed32cf28b5a4ca49b8eac5a4bab3f36b
hazelcast_7cb7e88237bb1d551d579bc203e2dd0ccc51ce03
hazelcast_bb1d8d79a307b7a782172b3ee1fc420dd4e1c127
hbase_4409ba741c1e9edc6a7b9e47829343417a339f9c
hbase_cf35402980c9661ecfb22593da783a0cb3dfe913
hbase_d41dd79f10b62df7ed89aa6b048390bf2b440775
libgdx_10821c9f522d7897c0f84eaa2b14af6d90f2d2fe
libgdx_84746d146971c06fd634d0fd34e282d136adec10
libgdx_93427d90431acb1ec83e5708bd0ef6c0281369c9
libgdx_996cadb3e79b248d2f2b3e584a1ea9e9f77fc1c2
libgdx_b2502762d7f643c89a023de9c31a4ccddeaf5ad1
libgdx_fb85c372214216ee1e0e04589c036fe5a5111f96
libgdx_fbabe43be4be0d8fa0aa55b9d83f41940a4c750a
mybatis-3_96b6a1313d3c25e4ab7b5f2604385311497d8b65
neo4j_63afc67ecfc2e5779666c02e98cde9cc16bf0dec
netty_c32df371abcbee7ebbb77e6bf6a429d3f3f4134b
netty_e1a53e61d02d195c952b2eb723c3275eb5989827
openhab_a2e9823d1c81937fea9a5a72f6ee8c073eeeb100
openhab_b343db0e694992c3f6c037bcc5eefae4c10db61f
openhab_ec6db0e0ab4948c4056a7c13da54f67c26c1ccaf
openmrs-core_31011d3232ace5a459ea2ba37f5634f7d4940694
openmrs-core_6c5b1205526a53e2327f802adf31e1f4e340d93f
openmrs-core_a24cc003cb42557584c969fdc8b6cffc65af7072
pinpoint_6bcc304e29dc9bd1052eecb504711182ed78d39a
presto_10c93df27435ffbc037cde5e6063c9dbc6c0eb3f
presto_83a71882f9aaea06c482d5efb4fbaa5c3c39b079
presto_ab46f2477a01e3d3e3dfcc10e249ae1349d72991
presto_bbe1b9a42da423745adb29c29c687e2545bb4202
presto_d128304bceaef2df9d8c527979010d56e6425bb4
roboguice_3d3fa1f37985a5389ac02024bed1505eeca713ca
storm_7340590ceb9549eb3fe8bc443ba9576260d337cc
swagger-codegen_6c922fdae1b08d7dcf2fac9f7b4dd1452a5e1fd4
swagger-core_41d67a3d7b3c2cc86be1792d79083f0d56981d2f
swagger-core_efd00f07de1672cfed0d7751b942b136ff82cd1e
wildfly_7e894043c7c2cb8631d3d1752286eed8f9484010
wildfly_80247ada8e7daa46660c732c4fc927e26f055d76
wildfly_ebcd6ae1a64d94fe5e4ce3d72eab588c48a2518d
wildfly_ff8365f5f88d35c25c9d025d03ee4e291a473d8f
YCSB_736f2f1c69f538fffcab5e4b36ecc40de3b270b6
YCSB_e6bd7393faa68dd73e73258ff75820b558bfd356
alluxio_45bf0d8715c375f45b21131e5b5bd9e125ebe9c3
alluxio_6017b07a9acd0019f0b3c02593ae4b9506f61de6
alluxio_68eef1055267042127949d22b2d6574c6f6133af
alluxio_7dd93938b32428584412b275fd056178d91ce5f6
alluxio_cb1b4d02e48d37e5c76932c430be95c0511e34dc
alluxio_d70d6a71ee43414e3ad54bacc9ac609dcd2efca9
alluxio_eada96ac53b27db394d98a2d1ebd35e9e15abe84
async-http-client_18c6a54b7b00d06b40a000b5356daef5e2c4c9b9
async-http-client_256d2e40a6796283556618b87af4b5730f903f62
async-http-client_89f3f214bc93ff306602ed8945b30aaa92523137
atmosphere_0bd369540d4e442bc02cdd3dd3134b9b5930fbd5
atmosphere_0ef7df6ec975a280713d6849142c1755731d06de
atmosphere_676461bada01bbb99257e01774b15db8bb71a39d
atmosphere_8a586e948e5de2ebd7bc09203c904e579f052c06
atmosphere_b715b5c1376b13452ef810bd5e8dedc9982e19ac
camel_1571742bfa15905659b6d42bbc33a00e05643b48
camel_59e2775fe4349667d553fd5b87ae55bed08f0866
camel_67146f7870f7822a44247868e2d93a696c5ec0d7
camel_80ae0c0b7908424e7f6fef38d3dd5aa3a173347a
camel_a49af9eeea26f6c409d845278eb9b38edf344914
camel_a5fe4f5d8fcb74a5ec054f61153f714c2983b689
dex2jar_23b07bf4dbf136736e92be97cc664f3e321a66e4
dubbo_2e658dd3e4784aa8404511e0a631a2cffd58545a
guava_d6ddbb7981b9e5b5c07231f8895bcda133019c63
hazelcast_099b2630acd1e1e18e8069a1fc3090287007a16d
hazelcast_62cba9fe2c42bbaea8fef30c85a9e5d7e9bcdb19
hazelcast_8d14f34eae4cd9efdd00e7db91785935779087b0
hazelcast_b2fe91c9b8394067bccfb56650dbe376b100a890
hazelcast_b56f19ce0b5f70196abe2313e97b0a70f76b31ad
hazelcast_c701c832f4baffa635088b8e3e57a900eda2aba6
hbase_6d04aa179485f331deff328f511f9b494bdb4d43
hbase_c0f265384f09d5b36e2065083922ba428edef798
hive_1aad3be28ffd06bf56dc743d4738fe850723cca4
hive_21810014f007080b96d6fa46deeef760ec542934
hive_2ee080d120a7eed0dfd36030c20c617eb7071e7a
hive_85c0bc256211160178d49bead3f228b78a21e1c4
libgdx_04a010c8499fbc96b1e5a99bdbebaf0b38d24586
libgdx_0867fa3723a28ad280f7512a7b68141b58215209
libgdx_2128c76abd417bcdc41c6120d924b618593e9fca
libgdx_3f30d8dc28af14bdde7f234ce609c7213cd8f100
libgdx_4da179382de208b5d63ca0b017cb2aa25ba4461b
libgdx_b981c761276a1a9aaedac51c10622656271dc180
mybatis-3_dd385dad6395af3f61aadf345d8eb6f4cc53ae52
mybatis-3_e7919feab1a5f371806a2f6d267e84e9542e3f26
neo4j_39e81c6df2ac7b3afb254e5c36446c7f42150bb0
neo4j_62a4bfb9380fad4992d3e9f6347ad7ff34d904b7
neo4j_77ac46d3956f3231c8e50da43ceaa0b8ebdc0f1a
netty_25c7a783a788b04f148c56f12d6efe1e11d093cd
netty_303f83043b200d940ac1d82ae23392de61f18fb3
netty_8d431679d7b2d35e68b1730aa4bf896eb740bb6a
openmrs-core_077e2fe62b1c9eb661028983af6d3405ebd81449
openmrs-core_18a5ebf9f27888a1724c3c7c2096540543b0dd1f
openmrs-core_1c4530a2da0e1bdffa5cb3fd17c80382fb1b4eeb
openmrs-core_4eebdc1b07ab6b049491475b27cc27c1f94206e6
presto_3cc42e2082ef0103890fca974d5f736a4e665074
presto_e7a5ab4073d673afe757f2cb55af27c95b99aa54
roboguice_b761c5bcc255d7c08d81e4c60ed5989b60504b8d
spring-boot_1528764194aced9df27bc34847de70e0fcd0c268
spring-boot_f8d58022301347c8a9790013e38dfc1d5d4037e7
springside4_eb4fd212d3307ddbab60a5acccef6473dfa0490f
storm_1274b076e0f5efb4d4114ecf61d985b2000b2d46
storm_bd963bca14d8ecd4c2eded3c6354045ebf73d505
wildfly_5c1a470af68205e2ef6914ac2892bb84c6f23ea6
wildfly_8e08934ff42e1ada53a48f6d9c1a3c756c9f6781
ActiveAndroid_e06e5898dc5ac2ced20491bdb7a8478c01e8499e
Activiti_39dc5314eecf01045794aee7b992eb09e3b06531
alluxio_0a8713235af5d85e00396cd65fdaef3939e38d60
alluxio_317b247a1fff90a1cc50d51f548d116221caf99a
alluxio_42d41d194dd5ff6bc7886f5a167aae9316b814bc
alluxio_44480175dafea420390a48d1a9e93dae0d1b4a3f
alluxio_76074b214612b7efb933e5bfed9d2a9e8e1bcbd7
alluxio_ab3350b4d657affb210da0770ab95f12fb576fdf
alluxio_ab72c059c55e01140f4c844e32686b1bc1daf591
alluxio_ad8ad9f32f532c21e865d445f0d5536bf87e7b8b
alluxio_b177584dbb4b511c764a52209fc49cb882702b65
alluxio_f207bc7996e970fb75d00fd340bcfbc2efd44bfd
atmosphere_24cf9587db23679d74680f32beade181791bf88c
atmosphere_343d969d3fbc831f0cbfe0e4b39fef02cd424c96
atmosphere_dd287e0057702c15b34db99de389a1c51023c2f3
camel_1673d2e78ef993d159c18e41ee9079544507b951
camel_7ea3d0ec30b6b88358ca298a7e8e752a15dfbc2f
camel_898128ba6d065082235f096139827820e5660637
camel_afa6f7a8df0dcac1bc942a4d98a63707b12764e6
camel_d55fc4de68d1c8d9a5aff883e2c5f84ad02aa0b8
camel_e034907ee15d939cbcfde171bb63715e23f01a6a
clojure_3aee36c87f6592f563ef814adb1431bdc4e740cf
closure-compiler_daef17d4bb38e7a7961121288f1ef4ae3c56ec71
CoreNLP_4b7f439486e099b7a79a35688d45e01bb1fcf036
dex2jar_3bc15fdae4c207473e545c0a6c63213e0a3db113
fastjson_036d7e12abb405b98536b8a9f9ec16defb682a43
flink_788d9452d8541b3ec7a11cae5d9fa605c2626fc1
flink_92e7da30dab93cf23bcf64084f660426a0d9da85
flink_ab3d6aa65220d2e024420b850bcc3078ef1cac15
gephi_8a9e1bcbff1ff10cf122b23b3a1aa437f02a2086
gephi_f556986a9f40c6bbadec1ddd6b853241a2a84b93
graylog2-server_b29b1031e0b70c79278d36990443b57a5f9d64ab
graylog2-server_d22fc5c01a3a5b1eae2ff81136351e7f44f4b74b
hazelcast_1092a1d4b3c5517a7f6352db53557cc5ff4135d5
hazelcast_1fc5a3d567e5854f3cfe9a2e3f0cb8b808515db0
hazelcast_c107859092914bf1f6c684ee202f309eb60330e2
hbase_1bf409f05285c855256698f91988202341b2853b
hbase_8fffaa7778e75625710adc9e458e7a549c525ce9
hbase_ae27a2bc3f7681fadf1bb8e9a6bd9c79e4d20d29
hive_5da67fc73109251de3572e781fea8dcf185b7fc4
hive_c9a67786483edaf7480cc73cdec2e492a7f16f46
hive_ce4cb40fd95ffc635374e074be1f9f8650dd57d4
libgdx_1c6bc8ead71b0f8f2939e12cf66a8c61f9fae26e
libgdx_30024a16affda18949b08699a4d304852e1e1643
libgdx_752be931ebf139e3a74ab3e477e1434875a7ab95
libgdx_979ce2a33924be23a6343640ed0c038af5a33740
libgdx_f0e67a1474fab9528737cc703fde6c35fdd5e288
mybatis-3_36fb7cbbe65c2d18fe69ebe342e12834bc9225ec
netty_6e0e38f09f74fb633a33cfd5c59265518bcf85be
netty_a865090d7a1c503590c4b5726cf9ee56b3cf20aa
netty_abccf184115129e7f4eb79af6c4fab0fc19ec1ea
netty_e36c4c77bfbbf18ce8e46fa8efe2a809df891345
openhab_5f5cd45dfa66a816f86995a9540a536c55141ca4
openhab_6b76d27c535a56fb1060f8e89870a5b6764812c3
openhab_cfd501f8c1961c9ea8c3521f3e11adff9b5de894
openhab_eb624251a251ad1c974caa6e548c04aef9539faf
pinpoint_577ee3f0147ed3d8077a734bddd3a4016546a346
presto_2ba203f659a7690bedf91a48e8d33e77a829a63f
presto_dcc24b58f7a426eed6d81d0c9f85367e12810efa
presto_fd7eb40daf07023ec3c5fce128fc86bad5a47c55
retrofit_a63faf44e1b103a49d25a15c720fc5940ae9fc07
roboguice_45cbae27786780ca4d6d57986b46bf2f54dae128
scribejava_874e959e0940032af2b854bc32e6fcf7e86f8bd5
spring-boot_508905884a2a4781c5a370c75cba284429d2dd6e
storm_7cf7647e546201d3f175860526888cd92b3927b3
twitter4j_2fbef41e3fcea14dcfc1bdaa0e6e103e246c3f90
twitter4j_3ff50741ae92e513825b787591ba82e4ee00026e
wildfly_9048c65bde04c48da2b1f7841d51f4d73c5336f1
wildfly_9576ff9d7a9840714a65487e3cf504a9c8e41688
wildfly_a2191b73865370f36c7c3eb870adcc44db99d1e5
wildfly_b9c0d31c3c2d6d6e91791308db92fd6a1cb5db43
wildfly_cd3ac4311288c854d5bf0e661097c7262cf84ce3
wildfly_e981384cc21ca3c1958acd4b494a6ddd147c0a60
x_f24f07f3cd5f7a1b9fe0ed4606208dbf2cf0f817
YCSB_04bbc38c496f77271d87cc23f9784be827744481
