alluxio_00434399c5ca512af7fbe5a7db652d98e4ec5a13
alluxio_12243781ff8d3d61777da26414a911675eab078e
alluxio_125b531c56733808ccd6467478a7d525a10e4c38
alluxio_22a38f23016697fcbe078fe68ed6830a86ece9c0
alluxio_36963a15ef9746ed8c4d6efa3f8ade15fe921523
alluxio_37eb9ed2c04158691631028e8885329d67db8c83
alluxio_3add9ab71fe828a0b97bd928a0f09b6b2704cd51
alluxio_4e11d655c9ef2115d1cf19e09d48e5d566b56840
alluxio_4e36e39ce513d99ff0d97244e3d697c2c30bda24
alluxio_72634d9ba9652f508f73e6d4c4aeacaa4dac3f3a
alluxio_9b1983ab446257a5edb5b31689a1483b63bece68
alluxio_b8d0f59f26c09ea477d3dcfe7706aedd2c39901e
alluxio_be297fef458787b9258f9fe068483aca6b3ce7ed
alluxio_ead4885f8b981f207a40859af6367b8fc1db86b5
alluxio_fa622bfe1dd2985be2a855d0255452f3cd2161a7
alluxio_ff540107e6f026bd6565a73186f7904c72a72149
async-http-client_ad9d355760141bb98219c85d1df3ac611398f59b
camel_9ddbb5f3bda81877c096d1f56146641765efa66e
camel_c16aab7df7dd437a8a3c2178d4abdfd87dcfa505
camel_c9a562e467fe68c98830eefbb41884ebdd71e309
dropwizard_237ea304bddb653450672d8105707d64127fa063
fastjson_59d72e6e1398cf7176865d33adcdee526bf490db
guava_eb635997c3cd1f6ce6b809987e50e71f0e1a665c
hazelcast_1c062ed52ae61ec3ab22b01fb7b9e2e15d2440d0
alluxio_0dfce75451213afa1d8bbabe9a9520e1d97910b1
alluxio_2357a7d2d784ae5c9aa900c1ccd41eb5049f85a8
alluxio_2f9f1b65a52967664a98c9874633de652f06e452
alluxio_4dc0526f7d93762106543a2fbb6100e0c2f76e1c
alluxio_4f8590ff58162f567e8a2b608de306abf6fb08fc
alluxio_618100095900ac610369ee51f728feceb0bb730c
alluxio_63a6043e1a8372a7e378a904077a4b30869e6057
alluxio_6e570b903a799d4f73474861c9f1a1db0099310a
alluxio_6f22864d06ab5307c69fb626e886d2f30fb5f8c7
alluxio_6f8aca648b6bef9a433ee35eb605744fc1cdef1d
alluxio_730c22e9725b558d9cb21090c7830ef4e7134b7b
alluxio_857fe88b6aaa104e89de7b1f7eef013912d14a10
alluxio_934cee094502428588d956f6db625a5f501f341e
alluxio_aa0e9f1fc60982ba4e0f48ea1734d47096ae8471
alluxio_bfe3835efeacc1afeb7833ef8939a5de8ae26007
alluxio_c9b08d18d48a01a93e50f12d2641295aafe4d7a6
alluxio_f3f2949d50d358be2569a29cd059e52d51a55d5e
alluxio_f68c090bcd6e2a480e247779a18963b19588ac81
alluxio_ff86a53e42513228e67471b71b01b9ea190800f5
camel_57b24a43424e5389b337b76289bb2f1c68ea0072
camel_74ed07d6ae20800d0c5b03eaec2e213a8b3dd00f
camel_8e9eab858bb83a2f44c6124974cf6a9e481c1dda
closure-compiler_c86e1482cf46434c6504e93b41c4f94f1c030374
dropwizard_50d906e17bfb29cad76c6f7a2c24da8f2fa02003
dropwizard_5b74572d4d337f5bdf92ba54312e69d08f4ed76b
dropwizard_b7f5ba9739dca132cb89b786be6fea8c78462724
java-design-patterns_833b5883d42697f9b63c4be74051c977a7480526
netty_2c390ae66b42fc7f28e3aa3b5f6eebdd1fd1cbfc
presto_d1caa1b9e738840bc177f14a37bb4fced579d977
x_a78b4a849de52c109940c50699cf1dad17368a33
alluxio_0d320af1a256afa669c9534191927755e9dee6e6
alluxio_239fa140327c335d86ec6a4c8a6da28a236551eb
alluxio_338307876c9aec8a64fece0d6c9ba151b3478e24
alluxio_421a63316c2115d0f7d525734770d803d4956d63
alluxio_4e0d204ea015f3c6444f2ca3f07e49256031fef8
alluxio_6017b07a9acd0019f0b3c02593ae4b9506f61de6
alluxio_68eef1055267042127949d22b2d6574c6f6133af
alluxio_7120e6744397bd325f7f16c1d7770f76047820bc
alluxio_7dd93938b32428584412b275fd056178d91ce5f6
alluxio_a3288cbfe2866483fc3facb3868346b3d1408c69
alluxio_ba3dd8fb5ca782deaecf3458e98d63b2616c7e1c
alluxio_bcc8c5beda6ed74ba136fd7acd461294e0ab16ff
alluxio_d15b72b94947277e47694b1db55c4f31f28a2642
alluxio_e182a0e59175ce9eeec89972c2a8ace3cf14ca58
async-http-client_18c6a54b7b00d06b40a000b5356daef5e2c4c9b9
atmosphere_676461bada01bbb99257e01774b15db8bb71a39d
camel_61570e64490bdaadddcac3197c93ff38a09febb4
camel_cc158b2acd4a8490408549c3add1f42881489312
CoreNLP_cf6ace96078150dfb84bd5ba35e2cef765f0484b
flink_35d88bcccb8bd27629ceeddfe084d7e7dedc6d6b
guava_53921947d568c284669a95de482579ffe40f329e
libgdx_113b5134f1f45534d880789be1cd787082ca3694
neo4j_5398f108bc3eda6d3e1532baeb08a9538b1c9cee
presto_33a6240a0aec273c7f48035b6dc814ddd35707e3
presto_ec7ddf1be8f60f24cd82b18f6fff6e75e82462ba
spring-boot_a2ebba8db1b00ed2b237d77d908e1cff9f41db0f
ActiveAndroid_e06e5898dc5ac2ced20491bdb7a8478c01e8499e
alluxio_018ae571b6d494f4c91e7be02defc7e16a61d48d
alluxio_050b85e8a4e1fe6e56abf30e5d8729f2ad777c1e
alluxio_1f23a3274ff7fc089d55dcf1bfc715a6d69e175c
alluxio_3917a29ac162afb3f4514af3232a60a62911596d
alluxio_4d20daa8fa7cc6285df905260ca60320ad9a9bd6
alluxio_4fd9167b83f567ce1d87837e780e5ee3d846b82c
alluxio_51229716623516e0e11a2fbcda67d02bfbd88310
alluxio_689456ff86214da22cdbc01cd7c26532af149013
alluxio_7015400e2a914761901ce50cebe330ff3784c45f
alluxio_7661132f7f82026310a83e1ad0eff6011fce6c90
alluxio_81e8edc84eadfc16fbb31a1520fc6aa7f6a7da52
alluxio_89a35c5fdb43d46c307272030ec248410f5d924e
alluxio_a02159864c613232c4c147b3284ec74b1cd266e0
alluxio_a4c1ffdb8d65b49b7ff39516f4db5698187e5169
alluxio_bd5d9cc72f246efb474394fdb16b17beab58b67d
alluxio_be6bd2e6c7c953499fe708eb202d8c46d82eeed0
alluxio_d754e6db0da611b892ed3e2f038283f5c35510d9
alluxio_e3d9f3cd50ab4d11695dd2810669852e5c9623b7
alluxio_fdf92d95f06a1d1ba32b092290eb8920cbacc13e
camel_e034907ee15d939cbcfde171bb63715e23f01a6a
hazelcast_98f6b35ce69cf3fcaf74e8e657e657dcfc80d58f
hazelcast_c107859092914bf1f6c684ee202f309eb60330e2
jedis_ab38239356754467d627a7687fa0cfad2a28fbe8
netty_f73c4f24ee36c671562840e941c914f79566cf97
openmrs-core_b72b12e037bdffdf59fafe8623c6d9643cb5a016
swagger-codegen_3465f2918e491ade0e295c9d544263f3aa0b8706
x_fc8a0eaed418844f88b6b257fbc872aff3a3ee74
