Activiti_02d326b888b3ce431468700ce32602c1b247bd91
Activiti_1f8fb8ad37dbd4cb4be77d827ba19e857bd451d1
Activiti_2a4442771eee1cc9e857f6999b3ead8e7cc43fd4
Activiti_e10fb4a2fa797c81b9ab8052793527a3cb80cd73
Activiti_f9dfe09527afac8deca02509f6e8bcae101ae8fb
alluxio_158ca9e3d3f7785d2fa3f0aad0d12339a74be2c7
alluxio_22a7ee9be3f6a027215775195111fe5f00727be0
alluxio_a82a81905c6c9034a910fa906ff84a487226213d
async-http-client_713054c1359a0cb346fe966fc2ebd0999680f4f4
atmosphere_343d969d3fbc831f0cbfe0e4b39fef02cd424c96
atmosphere_42e0782a5258626a58177d154ca0cf3da87cdf7a
atmosphere_50418466a40024d626e2fce8e87693305be3958e
atmosphere_624b2b502fbd73e03b451abb84afe57ee185fa92
atmosphere_72f919246228950fb80eee5c119292bed331633e
atmosphere_c6b2e961a60d6a2b4f568593c9b590b1c7e40fc0
atmosphere_c8e4a57fc52bb9e993772f8462713541331e8a1d
atmosphere_deabd5b0187c1825c686c7f6a593db918bd043dc
camel_09c75753e4ce3f47457d4dc0f0c6d0f488a4ccf0
camel_1571742bfa15905659b6d42bbc33a00e05643b48
camel_459a67f131dad0e8b8943a1e43b50af451532e56
camel_5597c0eca131cd1c9eff8e704f67f80637606564
camel_57b24a43424e5389b337b76289bb2f1c68ea0072
camel_823abb25eaf32cb2445b9a01035e8ad0ed179d72
camel_898128ba6d065082235f096139827820e5660637
camel_afa6f7a8df0dcac1bc942a4d98a63707b12764e6
checkstyle_2a96f3f8909df111882e075196adc2f1545e23f6
checkstyle_987da3a4c5fac3476a4461892c919c0f6d9248bd
closure-compiler_541a33ea309a08c82988d48604492f56746c0089
closure-compiler_6e44c2ab7f925356eebe85a007e5d89d2880fef2
cucumber-jvm_d8e98d97290d39da24739214b5ca9b4b3a599d27
dropwizard_c6b2f2648f8fcdee334d5c753f727d5a35440fab
dropwizard_ebdfcb47a030730233cf0984aadae155ec138ff3
druid_427bea8bae3af37769a58f579767d54cb7af415a
druid_8328666cb87ec2daf4a1ae67be86c8622a5d10bf
druid_b282b8181d18ddfd3ba30089e65114696995462f
dubbo_d80a42cc69d16d3cb3391ba9f5ec2cc64436839f
flink_385b42d9fd284c23c48987dae294449740a70853
flink_62bf8fd4813271c64afbb1509b31811c79246bce
flink_6618cef776cf1c9ce67ff8ee461412110ca5ada7
flink_788d9452d8541b3ec7a11cae5d9fa605c2626fc1
flink_dfbf83ff6356fae4948cc44a1d0908defaeca45f
gephi_be32765c0ef5c0c0b48f8c649e971595a439013a
graylog2-server_578bd281f8cb12f46ca902cd2b87b0838a831a90
graylog2-server_776c2876692132f850e6498419b2742f34bd8ed4
graylog2-server_7efab8ecbdc082c324799aa7e25490a8e0e5520b
hadoop_1f6258f535f114b88d9be038ffbcf23f7621dba3
hadoop_a6acbd2403be12f2c9d24a6dc24eea6b0c530c0f
hazelcast_1c062ed52ae61ec3ab22b01fb7b9e2e15d2440d0
hazelcast_b0273c7b8bfb373ab336baae7c981f4a79fe3032
hazelcast_c107859092914bf1f6c684ee202f309eb60330e2
hazelcast_e6329ebed39492e0ffeb243b0430bcc07ece81a0
hbase_20bc74dff0cf1e1834e99d1f2499a3f5e4c38a36
hbase_25c95d8dd9ec2d4e712aaeccedec306be41a3c8a
hbase_41c8ec7aeae859808a217bd7a561e81be7e3c7ac
hbase_58c20f3c76f7a73a355e36e5c0791d6c3522565b
hbase_cf35402980c9661ecfb22593da783a0cb3dfe913
hbase_e74cd24ff2229b060e219af33c3abe5cbf1079d1
hbase_e896f6d400c7ad946141adbf7317df7c680fcdc6
HikariCP_527c8ce59c1c59b317618a3521ab5d4f84e08246
hive_198ab0e862cdf33e8dff37bf24676ffcb392ed82
hive_85c0bc256211160178d49bead3f228b78a21e1c4
hive_de1fe68b90ff9e29a21095035c7ed02dbbf35f26
libgdx_0ef571a65fc3e299a1c94cf24a1233a6fbd0a0d1
libgdx_30024a16affda18949b08699a4d304852e1e1643
libgdx_4da179382de208b5d63ca0b017cb2aa25ba4461b
libgdx_8998e8b7b968250096364d48006a5c8708531290
libgdx_fb85c372214216ee1e0e04589c036fe5a5111f96
metrics_34aa92dca9aee7ee6e0ba551e69639f853df15d3
mybatis-3_6e5b82f6f987d5dee5e5dba4dfbf3e3873f5a777
nanohttpd_220e1a21e7bbb831d06551c72799dfedc1db979f
nanohttpd_450ef8e6a4e75fa0cdcc4b00a4d26c276bf5df3d
nanohttpd_e6b3d8f2f742d16a2ce91f573740a4aa727fc0b1
neo4j_2e87cf7e8eba0f34f35f89869eabd4815874d607
neo4j_412b8171a48f65da220a9fb2ae790b6c67efbb2b
neo4j_5bc5353c7899d3a51ffbab8faedd6ebc95587f6f
neo4j_c982dcf082812f4fdae3c7159ab9baad233a1799
netty_be1426a22096f6e95d36f389a5ea9b8a38482ebe
netty_e1a53e61d02d195c952b2eb723c3275eb5989827
openhab_0d0ab352fa9a8ac9cb2dcb543ba1705a4e187eb1
openhab_198d4ef1420ba1c306b33cd48061c37d79fc8098
openhab_3a1be8e56587d0c4665f54f0cc2536cbe0a375f7
openhab_72b86ae3aa6b084fc0cacf3ad86506ac9cf6486b
openhab_7b7249ad2cc3f33406ab319cdf53ad86121fe177
openhab_8038c106a246401ddf7690a004d6daa3ee098299
openhab_ec666401f3cf68fd5c5f5b4009deec12ab6e3f45
openmrs-core_18a5ebf9f27888a1724c3c7c2096540543b0dd1f
openmrs-core_1c4530a2da0e1bdffa5cb3fd17c80382fb1b4eeb
openmrs-core_50020d38a1c9f607600f4a162e563bb9b6103599
openmrs-core_57634b6921a0d40e0cedb8150a7051c9cc466a5a
openmrs-core_b73af3917eec722c20c0cd75547590158072cbd9
openmrs-core_fcb5ce0b9315919cf5c7d717cf44377bb8873396
presto_8e42a6e155a8f92aed5780d1ff4f0225aa178875
presto_ab31e66e53f6e2f007e234bba4f33ebe7291e5fa
presto_c5904292317523fd460850b10d32c7a21084fc68
presto_d128304bceaef2df9d8c527979010d56e6425bb4
presto_dcc24b58f7a426eed6d81d0c9f85367e12810efa
scribejava_cee1ed39f39cb5fd403db3986d2412d6cab7da0c
spring-boot_0408eb413ffe77c6b65debacc2622ef42ec3a5a7
spring-boot_b3203058be9aba7abbbfa8091413a75603b270bc
spring-boot_da8362a2da7950fb84cba182a17a41e3b5152668
swagger-codegen_cc848a1c24959c2f6941234b77399fbd58ecd3ca
swagger-core_183a6fccd65bc0cd6de129aa2c7b35b13bfd2797
swagger-core_f96aeff677f2874dfbab1578decfed57438b4361
wildfly_b9c0d31c3c2d6d6e91791308db92fd6a1cb5db43
wildfly_baf5ae0a810f942b3d23f81a2cb03773f5ca231c
x_fc8a0eaed418844f88b6b257fbc872aff3a3ee74
