clojure_96589c0405b88880970f62f9e1380e77805642c7
closure-compiler_6442298e28c835ed3add70f22bc193c31bb200f4
dubbo_d80a42cc69d16d3cb3391ba9f5ec2cc64436839f
flink_594c6ff5541529755a3bef8ca9530d0ac3d5b690
flink_641e4509dfb5e9aa7576f8225f37ed035a15894a
graylog2-server_d22fc5c01a3a5b1eae2ff81136351e7f44f4b74b
hazelcast_c107859092914bf1f6c684ee202f309eb60330e2
libgdx_fbabe43be4be0d8fa0aa55b9d83f41940a4c750a
nanohttpd_450ef8e6a4e75fa0cdcc4b00a4d26c276bf5df3d
nanohttpd_e6b3d8f2f742d16a2ce91f573740a4aa727fc0b1
pinpoint_ed0f4cc76b722fb5470d2fa0cbcbae9597385b8d
x_fc8a0eaed418844f88b6b257fbc872aff3a3ee74
